{"level":30,"time":"2021-08-28T05:47:30.747Z","msg":"app ready"}
{"level":30,"time":"2021-08-28T05:47:30.747Z","msg":"starting version 5.15.0"}
{"level":30,"time":"2021-08-28T05:47:30.748Z","msg":"media access status"}
{"level":30,"time":"2021-08-28T05:47:30.773Z","msg":"got fast spellcheck setting true"}
{"level":30,"time":"2021-08-28T05:47:30.774Z","msg":"getSystemTraySetting had no flags and did no DB lookups. Returning DoNotUseSystemTray"}
{"level":30,"time":"2021-08-28T05:47:30.774Z","msg":"Initializing BrowserWindow config: {\"show\":false,\"width\":800,\"height\":610,\"minWidth\":680,\"minHeight\":550,\"autoHideMenuBar\":false,\"titleBarStyle\":\"default\",\"backgroundColor\":\"#3a76f0\",\"webPreferences\":{\"devTools\":false,\"nodeIntegration\":false,\"nodeIntegrationInWorker\":false,\"contextIsolation\":false,\"enableRemoteModule\":true,\"preload\":\"/usr/lib/signal-desktop/resources/app.asar/preload.bundle.js\",\"nativeWindowOpen\":true,\"spellcheck\":true,\"backgroundThrottling\":false},\"icon\":\"/usr/lib/signal-desktop/resources/app.asar/images/signal-logo-desktop-linux.png\",\"x\":2135,\"y\":175}"}
{"level":30,"time":"2021-08-28T05:47:30.852Z","msg":"spellcheck: user locale: en-US"}
{"level":30,"time":"2021-08-28T05:47:30.852Z","msg":"spellcheck: available spellchecker languages:  [\"af\",\"bg\",\"ca\",\"cs\",\"cy\",\"da\",\"de\",\"de-DE\",\"el\",\"en-AU\",\"en-CA\",\"en-GB\",\"en-GB-oxendict\",\"en-US\",\"es\",\"es-419\",\"es-AR\",\"es-ES\",\"es-MX\",\"es-US\",\"et\",\"fa\",\"fo\",\"fr\",\"fr-FR\",\"he\",\"hi\",\"hr\",\"hu\",\"hy\",\"id\",\"it\",\"it-IT\",\"ko\",\"lt\",\"lv\",\"nb\",\"nl\",\"pl\",\"pt\",\"pt-BR\",\"pt-PT\",\"ro\",\"ru\",\"sh\",\"sk\",\"sl\",\"sq\",\"sr\",\"sv\",\"ta\",\"tg\",\"tr\",\"uk\",\"vi\"]"}
{"level":30,"time":"2021-08-28T05:47:30.852Z","msg":"spellcheck: setting languages to:  [\"en-US\"]"}
{"level":30,"time":"2021-08-28T05:47:30.869Z","msg":"got fast spellcheck setting true"}
{"level":30,"time":"2021-08-28T05:47:30.877Z","msg":"System tray service: created"}
{"level":30,"time":"2021-08-28T05:47:30.878Z","msg":"System tray service: updating main window. Previously, there was not a window, and now there is"}
{"level":30,"time":"2021-08-28T05:47:30.878Z","msg":"System tray service: rendering no tray"}
{"level":30,"time":"2021-08-28T05:47:30.878Z","msg":"Begin ensuring permissions"}
{"level":30,"time":"2021-08-28T05:47:30.883Z","msg":"Ensuring file permissions for 4 files"}
{"level":30,"time":"2021-08-28T05:47:30.885Z","msg":"Finish ensuring permissions in 7ms"}
{"level":30,"time":"2021-08-28T05:47:32.938Z","msg":"sending `database-ready`"}
{"level":30,"time":"2021-08-28T05:47:32.945Z","msg":"main window is ready-to-show"}
{"level":30,"time":"2021-08-28T05:47:32.945Z","msg":"showing main window"}
{"level":30,"time":"2021-08-28T05:47:32.956Z","msg":"System tray service: rendering no tray"}
{"level":30,"time":"2021-08-28T05:47:33.258Z","msg":"deleteAll: deleted 0 files"}
{"level":30,"time":"2021-08-28T05:47:33.279Z","msg":"deleteAllStickers: deleted 0 files"}
{"level":30,"time":"2021-08-28T05:47:33.283Z","msg":"deleteAllDraftAttachments: deleted 0 files"}
{"level":30,"time":"2021-08-28T05:47:33.467Z","msg":"Updating BrowserWindow config: {\"maximized\":false,\"autoHideMenuBar\":false,\"fullscreen\":false,\"width\":800,\"height\":610,\"x\":2136,\"y\":193}"}
{"level":30,"time":"2021-08-28T05:47:33.467Z","msg":"config/set: Saving ephemeral config to disk"}
{"level":30,"time":"2021-08-28T05:47:33.581Z","msg":"Begin ensuring permissions"}
{"level":30,"time":"2021-08-28T05:47:33.609Z","msg":"Ensuring file permissions for 458 files"}
{"level":50,"time":"2021-08-28T05:47:33.611Z","msg":"ensureFilePermissions: Error from chmod ENOENT: no such file or directory, chmod '[REDACTED]/SingletonCookie'"}
{"level":50,"time":"2021-08-28T05:47:33.611Z","msg":"ensureFilePermissions: Error from chmod ENOENT: no such file or directory, chmod '[REDACTED]/SingletonLock'"}
{"level":30,"time":"2021-08-28T05:47:33.630Z","msg":"Finish ensuring permissions in 49ms"}
{"level":30,"time":"2021-08-28T05:47:34.851Z","msg":"updater/start: Updates disabled - not starting new version checks"}
{"level":30,"time":"2021-08-28T05:47:34.870Z","msg":"App loaded - time: 4198"}
{"level":30,"time":"2021-08-28T05:47:34.870Z","msg":"SQL init - time: 152"}
{"level":30,"time":"2021-08-28T05:47:34.870Z","msg":"Preload - time: 1555"}
{"level":30,"time":"2021-08-28T05:47:34.870Z","msg":"WebSocket connect - time: 1073"}
{"level":30,"time":"2021-08-28T05:47:34.870Z","msg":"Processed count: 62"}
{"level":30,"time":"2021-08-28T05:47:34.870Z","msg":"Messages per second: 39.49044585987261"}
{"level":30,"time":"2021-08-28T05:47:36.124Z","msg":"Updating BrowserWindow config: {\"maximized\":false,\"autoHideMenuBar\":false,\"fullscreen\":false,\"width\":800,\"height\":610,\"x\":476,\"y\":296}"}
{"level":30,"time":"2021-08-28T05:47:36.125Z","msg":"config/set: Saving ephemeral config to disk"}
{"level":30,"time":"2021-08-28T08:24:10.228Z","msg":"close event {\"shouldQuit\":false}"}
{"level":30,"time":"2021-08-28T08:24:10.229Z","msg":"System tray service: rendering no tray"}
{"level":30,"time":"2021-08-28T08:24:10.229Z","msg":"requestShutdown: Requesting close of mainWindow..."}
{"level":30,"time":"2021-08-28T08:24:10.258Z","msg":"requestShutdown: Response received"}
{"level":30,"time":"2021-08-28T08:24:10.263Z","msg":"before-quit event {\"readyForShutdown\":true,\"shouldQuit\":false}"}
{"level":30,"time":"2021-08-28T08:24:10.263Z","msg":"close event {\"readyForShutdown\":true,\"shouldQuit\":true}"}
{"level":30,"time":"2021-08-28T08:24:10.266Z","msg":"System tray service: updating main window. Previously, there was a window, and now there is not"}
{"level":30,"time":"2021-08-28T12:48:02.575Z","msg":"app ready"}
{"level":30,"time":"2021-08-28T12:48:02.576Z","msg":"starting version 5.15.0"}
{"level":30,"time":"2021-08-28T12:48:02.576Z","msg":"media access status"}
{"level":30,"time":"2021-08-28T12:48:02.608Z","msg":"got fast spellcheck setting true"}
{"level":30,"time":"2021-08-28T12:48:02.608Z","msg":"getSystemTraySetting had no flags and did no DB lookups. Returning DoNotUseSystemTray"}
{"level":30,"time":"2021-08-28T12:48:02.609Z","msg":"Initializing BrowserWindow config: {\"show\":false,\"width\":800,\"height\":610,\"minWidth\":680,\"minHeight\":550,\"autoHideMenuBar\":false,\"titleBarStyle\":\"default\",\"backgroundColor\":\"#3a76f0\",\"webPreferences\":{\"devTools\":false,\"nodeIntegration\":false,\"nodeIntegrationInWorker\":false,\"contextIsolation\":false,\"enableRemoteModule\":true,\"preload\":\"/usr/lib/signal-desktop/resources/app.asar/preload.bundle.js\",\"nativeWindowOpen\":true,\"spellcheck\":true,\"backgroundThrottling\":false},\"icon\":\"/usr/lib/signal-desktop/resources/app.asar/images/signal-logo-desktop-linux.png\",\"x\":476,\"y\":296}"}
{"level":30,"time":"2021-08-28T12:48:02.684Z","msg":"spellcheck: user locale: en-US"}
{"level":30,"time":"2021-08-28T12:48:02.685Z","msg":"spellcheck: available spellchecker languages:  [\"af\",\"bg\",\"ca\",\"cs\",\"cy\",\"da\",\"de\",\"de-DE\",\"el\",\"en-AU\",\"en-CA\",\"en-GB\",\"en-GB-oxendict\",\"en-US\",\"es\",\"es-419\",\"es-AR\",\"es-ES\",\"es-MX\",\"es-US\",\"et\",\"fa\",\"fo\",\"fr\",\"fr-FR\",\"he\",\"hi\",\"hr\",\"hu\",\"hy\",\"id\",\"it\",\"it-IT\",\"ko\",\"lt\",\"lv\",\"nb\",\"nl\",\"pl\",\"pt\",\"pt-BR\",\"pt-PT\",\"ro\",\"ru\",\"sh\",\"sk\",\"sl\",\"sq\",\"sr\",\"sv\",\"ta\",\"tg\",\"tr\",\"uk\",\"vi\"]"}
{"level":30,"time":"2021-08-28T12:48:02.685Z","msg":"spellcheck: setting languages to:  [\"en-US\"]"}
{"level":30,"time":"2021-08-28T12:48:02.701Z","msg":"got fast spellcheck setting true"}
{"level":30,"time":"2021-08-28T12:48:02.706Z","msg":"System tray service: created"}
{"level":30,"time":"2021-08-28T12:48:02.706Z","msg":"System tray service: updating main window. Previously, there was not a window, and now there is"}
{"level":30,"time":"2021-08-28T12:48:02.706Z","msg":"System tray service: rendering no tray"}
{"level":30,"time":"2021-08-28T12:48:02.706Z","msg":"Begin ensuring permissions"}
{"level":30,"time":"2021-08-28T12:48:02.716Z","msg":"Ensuring file permissions for 4 files"}
{"level":30,"time":"2021-08-28T12:48:02.717Z","msg":"Finish ensuring permissions in 11ms"}
{"level":30,"time":"2021-08-28T12:48:04.401Z","msg":"sending `database-ready`"}
{"level":30,"time":"2021-08-28T12:48:04.408Z","msg":"main window is ready-to-show"}
{"level":30,"time":"2021-08-28T12:48:04.408Z","msg":"showing main window"}
{"level":30,"time":"2021-08-28T12:48:04.424Z","msg":"System tray service: rendering no tray"}
{"level":30,"time":"2021-08-28T12:48:04.930Z","msg":"Updating BrowserWindow config: {\"maximized\":false,\"autoHideMenuBar\":false,\"fullscreen\":false,\"width\":800,\"height\":610,\"x\":477,\"y\":314}"}
{"level":30,"time":"2021-08-28T12:48:04.930Z","msg":"config/set: Saving ephemeral config to disk"}
{"level":30,"time":"2021-08-28T12:48:05.313Z","msg":"updater/start: Updates disabled - not starting new version checks"}
{"level":30,"time":"2021-08-28T12:48:05.343Z","msg":"App loaded - time: 2848"}
{"level":30,"time":"2021-08-28T12:48:05.343Z","msg":"SQL init - time: 35"}
{"level":30,"time":"2021-08-28T12:48:05.343Z","msg":"Preload - time: 1199"}
{"level":30,"time":"2021-08-28T12:48:05.343Z","msg":"WebSocket connect - time: 895"}
{"level":30,"time":"2021-08-28T12:48:05.343Z","msg":"Processed count: 0"}
{"level":30,"time":"2021-08-28T12:48:05.343Z","msg":"Messages per second: 0"}
{"level":30,"time":"2021-08-28T12:48:06.969Z","msg":"Updating BrowserWindow config: {\"maximized\":false,\"autoHideMenuBar\":false,\"fullscreen\":false,\"width\":800,\"height\":610,\"x\":933,\"y\":325}"}
{"level":30,"time":"2021-08-28T12:48:06.969Z","msg":"config/set: Saving ephemeral config to disk"}
{"level":30,"time":"2021-08-28T12:50:07.990Z","msg":"System tray service: setting unread count to 1"}
{"level":30,"time":"2021-08-28T12:50:07.990Z","msg":"System tray service: rendering no tray"}
{"level":30,"time":"2021-08-28T12:50:08.114Z","msg":"Approving request for permission 'notifications'"}
{"level":30,"time":"2021-08-28T12:50:10.334Z","msg":"System tray service: setting unread count to 0"}
{"level":30,"time":"2021-08-28T12:50:10.334Z","msg":"System tray service: rendering no tray"}
{"level":30,"time":"2021-08-28T12:52:01.609Z","msg":"System tray service: setting unread count to 1"}
{"level":30,"time":"2021-08-28T12:52:01.609Z","msg":"System tray service: rendering no tray"}
{"level":30,"time":"2021-08-28T12:52:01.745Z","msg":"Approving request for permission 'notifications'"}
{"level":30,"time":"2021-08-28T12:52:16.921Z","msg":"System tray service: setting unread count to 0"}
{"level":30,"time":"2021-08-28T12:52:16.921Z","msg":"System tray service: rendering no tray"}
{"level":30,"time":"2021-08-28T12:54:35.934Z","msg":"System tray service: setting unread count to 1"}
{"level":30,"time":"2021-08-28T12:54:35.934Z","msg":"System tray service: rendering no tray"}
{"level":30,"time":"2021-08-28T12:54:36.049Z","msg":"Approving request for permission 'notifications'"}
{"level":30,"time":"2021-08-28T12:54:39.417Z","msg":"System tray service: setting unread count to 2"}
{"level":30,"time":"2021-08-28T12:54:39.417Z","msg":"System tray service: rendering no tray"}
{"level":30,"time":"2021-08-28T12:54:39.529Z","msg":"Approving request for permission 'notifications'"}
{"level":30,"time":"2021-08-28T12:55:02.852Z","msg":"System tray service: setting unread count to 0"}
{"level":30,"time":"2021-08-28T12:55:02.852Z","msg":"System tray service: rendering no tray"}
{"level":30,"time":"2021-08-28T12:55:18.316Z","msg":"System tray service: setting unread count to 1"}
{"level":30,"time":"2021-08-28T12:55:18.316Z","msg":"System tray service: rendering no tray"}
{"level":30,"time":"2021-08-28T12:55:18.423Z","msg":"Approving request for permission 'notifications'"}
{"level":30,"time":"2021-08-28T12:55:24.661Z","msg":"System tray service: setting unread count to 0"}
{"level":30,"time":"2021-08-28T12:55:24.661Z","msg":"System tray service: rendering no tray"}
{"level":30,"time":"2021-08-28T12:55:54.037Z","msg":"System tray service: setting unread count to 1"}
{"level":30,"time":"2021-08-28T12:55:54.037Z","msg":"System tray service: rendering no tray"}
{"level":30,"time":"2021-08-28T12:55:54.151Z","msg":"Approving request for permission 'notifications'"}
{"level":30,"time":"2021-08-28T12:55:56.390Z","msg":"System tray service: setting unread count to 2"}
{"level":30,"time":"2021-08-28T12:55:56.390Z","msg":"System tray service: rendering no tray"}
{"level":30,"time":"2021-08-28T12:55:56.492Z","msg":"Approving request for permission 'notifications'"}
{"level":30,"time":"2021-08-28T12:56:15.200Z","msg":"System tray service: setting unread count to 0"}
{"level":30,"time":"2021-08-28T12:56:15.200Z","msg":"System tray service: rendering no tray"}
{"level":30,"time":"2021-08-28T13:04:06.152Z","msg":"System tray service: setting unread count to 1"}
{"level":30,"time":"2021-08-28T13:04:06.152Z","msg":"System tray service: rendering no tray"}
{"level":30,"time":"2021-08-28T13:04:06.262Z","msg":"Approving request for permission 'notifications'"}
{"level":30,"time":"2021-08-28T13:04:52.665Z","msg":"System tray service: setting unread count to 0"}
{"level":30,"time":"2021-08-28T13:04:52.665Z","msg":"System tray service: rendering no tray"}
{"level":30,"time":"2021-08-28T13:05:22.505Z","msg":"System tray service: setting unread count to 1"}
{"level":30,"time":"2021-08-28T13:05:22.505Z","msg":"System tray service: rendering no tray"}
{"level":30,"time":"2021-08-28T13:05:22.627Z","msg":"Approving request for permission 'notifications'"}
{"level":30,"time":"2021-08-28T13:05:27.734Z","msg":"System tray service: setting unread count to 0"}
{"level":30,"time":"2021-08-28T13:05:27.734Z","msg":"System tray service: rendering no tray"}
{"level":30,"time":"2021-08-28T13:05:48.927Z","msg":"System tray service: setting unread count to 1"}
{"level":30,"time":"2021-08-28T13:05:48.927Z","msg":"System tray service: rendering no tray"}
{"level":30,"time":"2021-08-28T13:05:49.044Z","msg":"Approving request for permission 'notifications'"}
{"level":30,"time":"2021-08-28T13:05:56.046Z","msg":"System tray service: setting unread count to 0"}
{"level":30,"time":"2021-08-28T13:05:56.046Z","msg":"System tray service: rendering no tray"}
{"level":30,"time":"2021-08-28T14:21:22.659Z","msg":"System tray service: setting unread count to 1"}
{"level":30,"time":"2021-08-28T14:21:22.659Z","msg":"System tray service: rendering no tray"}
{"level":30,"time":"2021-08-28T14:21:22.763Z","msg":"Approving request for permission 'notifications'"}
{"level":30,"time":"2021-08-28T14:24:14.817Z","msg":"System tray service: setting unread count to 0"}
{"level":30,"time":"2021-08-28T14:24:14.817Z","msg":"System tray service: rendering no tray"}
{"level":30,"time":"2021-08-28T14:54:56.746Z","msg":"System tray service: setting unread count to 1"}
{"level":30,"time":"2021-08-28T14:54:56.746Z","msg":"System tray service: rendering no tray"}
{"level":30,"time":"2021-08-28T14:54:56.842Z","msg":"Approving request for permission 'notifications'"}
{"level":30,"time":"2021-08-28T14:55:21.046Z","msg":"System tray service: setting unread count to 0"}
{"level":30,"time":"2021-08-28T14:55:21.046Z","msg":"System tray service: rendering no tray"}
{"level":30,"time":"2021-08-28T14:56:16.809Z","msg":"System tray service: setting unread count to 1"}
{"level":30,"time":"2021-08-28T14:56:16.810Z","msg":"System tray service: rendering no tray"}
{"level":30,"time":"2021-08-28T14:56:16.905Z","msg":"Approving request for permission 'notifications'"}
{"level":30,"time":"2021-08-28T14:56:22.247Z","msg":"System tray service: setting unread count to 0"}
{"level":30,"time":"2021-08-28T14:56:22.247Z","msg":"System tray service: rendering no tray"}
{"level":30,"time":"2021-08-28T15:38:22.848Z","msg":"System tray service: setting unread count to 1"}
{"level":30,"time":"2021-08-28T15:38:22.848Z","msg":"System tray service: rendering no tray"}
{"level":30,"time":"2021-08-28T15:38:22.983Z","msg":"Approving request for permission 'notifications'"}
{"level":30,"time":"2021-08-28T15:38:29.427Z","msg":"System tray service: setting unread count to 0"}
{"level":30,"time":"2021-08-28T15:38:29.427Z","msg":"System tray service: rendering no tray"}
{"level":30,"time":"2021-08-28T15:39:06.921Z","msg":"System tray service: setting unread count to 1"}
{"level":30,"time":"2021-08-28T15:39:06.921Z","msg":"System tray service: rendering no tray"}
{"level":30,"time":"2021-08-28T15:39:12.944Z","msg":"System tray service: setting unread count to 2"}
{"level":30,"time":"2021-08-28T15:39:12.944Z","msg":"System tray service: rendering no tray"}
{"level":30,"time":"2021-08-28T15:39:15.192Z","msg":"System tray service: setting unread count to 0"}
{"level":30,"time":"2021-08-28T15:39:15.192Z","msg":"System tray service: rendering no tray"}
{"level":30,"time":"2021-08-28T15:40:10.253Z","msg":"System tray service: setting unread count to 1"}
{"level":30,"time":"2021-08-28T15:40:10.254Z","msg":"System tray service: rendering no tray"}
{"level":30,"time":"2021-08-28T15:40:10.354Z","msg":"Approving request for permission 'notifications'"}
{"level":30,"time":"2021-08-28T15:40:20.392Z","msg":"System tray service: setting unread count to 2"}
{"level":30,"time":"2021-08-28T15:40:20.392Z","msg":"System tray service: rendering no tray"}
{"level":30,"time":"2021-08-28T15:40:20.499Z","msg":"Approving request for permission 'notifications'"}
{"level":30,"time":"2021-08-28T15:40:28.634Z","msg":"System tray service: setting unread count to 3"}
{"level":30,"time":"2021-08-28T15:40:28.634Z","msg":"System tray service: rendering no tray"}
{"level":30,"time":"2021-08-28T15:40:28.742Z","msg":"Approving request for permission 'notifications'"}
{"level":30,"time":"2021-08-28T15:40:50.722Z","msg":"System tray service: setting unread count to 4"}
{"level":30,"time":"2021-08-28T15:40:50.722Z","msg":"System tray service: rendering no tray"}
{"level":30,"time":"2021-08-28T15:40:50.841Z","msg":"Approving request for permission 'notifications'"}
{"level":30,"time":"2021-08-28T15:41:43.562Z","msg":"System tray service: setting unread count to 0"}
{"level":30,"time":"2021-08-28T15:41:43.562Z","msg":"System tray service: rendering no tray"}
{"level":30,"time":"2021-08-28T15:43:29.402Z","msg":"Updating BrowserWindow config: {\"maximized\":false,\"autoHideMenuBar\":false,\"fullscreen\":false,\"width\":800,\"height\":610,\"x\":52,\"y\":84}"}
{"level":30,"time":"2021-08-28T15:43:29.402Z","msg":"config/set: Saving ephemeral config to disk"}
{"level":30,"time":"2021-08-28T16:15:59.893Z","msg":"close event {\"shouldQuit\":false}"}
{"level":30,"time":"2021-08-28T16:15:59.893Z","msg":"System tray service: rendering no tray"}
{"level":30,"time":"2021-08-28T16:15:59.894Z","msg":"requestShutdown: Requesting close of mainWindow..."}
{"level":30,"time":"2021-08-28T16:15:59.913Z","msg":"requestShutdown: Response received"}
{"level":30,"time":"2021-08-28T16:15:59.916Z","msg":"before-quit event {\"readyForShutdown\":true,\"shouldQuit\":false}"}
{"level":30,"time":"2021-08-28T16:15:59.916Z","msg":"close event {\"readyForShutdown\":true,\"shouldQuit\":true}"}
{"level":30,"time":"2021-08-28T16:15:59.917Z","msg":"System tray service: updating main window. Previously, there was a window, and now there is not"}
{"level":30,"time":"2021-08-28T16:48:37.296Z","msg":"app ready"}
{"level":30,"time":"2021-08-28T16:48:37.296Z","msg":"starting version 5.15.0"}
{"level":30,"time":"2021-08-28T16:48:37.296Z","msg":"media access status"}
{"level":30,"time":"2021-08-28T16:48:37.316Z","msg":"got fast spellcheck setting true"}
{"level":30,"time":"2021-08-28T16:48:37.317Z","msg":"getSystemTraySetting had no flags and did no DB lookups. Returning DoNotUseSystemTray"}
{"level":30,"time":"2021-08-28T16:48:37.317Z","msg":"Initializing BrowserWindow config: {\"show\":false,\"width\":800,\"height\":610,\"minWidth\":680,\"minHeight\":550,\"autoHideMenuBar\":false,\"titleBarStyle\":\"default\",\"backgroundColor\":\"#3a76f0\",\"webPreferences\":{\"devTools\":false,\"nodeIntegration\":false,\"nodeIntegrationInWorker\":false,\"contextIsolation\":false,\"enableRemoteModule\":true,\"preload\":\"/usr/lib/signal-desktop/resources/app.asar/preload.bundle.js\",\"nativeWindowOpen\":true,\"spellcheck\":true,\"backgroundThrottling\":false},\"icon\":\"/usr/lib/signal-desktop/resources/app.asar/images/signal-logo-desktop-linux.png\",\"x\":52,\"y\":84}"}
{"level":30,"time":"2021-08-28T16:48:37.363Z","msg":"spellcheck: user locale: en-US"}
{"level":30,"time":"2021-08-28T16:48:37.363Z","msg":"spellcheck: available spellchecker languages:  [\"af\",\"bg\",\"ca\",\"cs\",\"cy\",\"da\",\"de\",\"de-DE\",\"el\",\"en-AU\",\"en-CA\",\"en-GB\",\"en-GB-oxendict\",\"en-US\",\"es\",\"es-419\",\"es-AR\",\"es-ES\",\"es-MX\",\"es-US\",\"et\",\"fa\",\"fo\",\"fr\",\"fr-FR\",\"he\",\"hi\",\"hr\",\"hu\",\"hy\",\"id\",\"it\",\"it-IT\",\"ko\",\"lt\",\"lv\",\"nb\",\"nl\",\"pl\",\"pt\",\"pt-BR\",\"pt-PT\",\"ro\",\"ru\",\"sh\",\"sk\",\"sl\",\"sq\",\"sr\",\"sv\",\"ta\",\"tg\",\"tr\",\"uk\",\"vi\"]"}
{"level":30,"time":"2021-08-28T16:48:37.363Z","msg":"spellcheck: setting languages to:  [\"en-US\"]"}
{"level":30,"time":"2021-08-28T16:48:37.372Z","msg":"got fast spellcheck setting true"}
{"level":30,"time":"2021-08-28T16:48:37.381Z","msg":"System tray service: created"}
{"level":30,"time":"2021-08-28T16:48:37.381Z","msg":"System tray service: updating main window. Previously, there was not a window, and now there is"}
{"level":30,"time":"2021-08-28T16:48:37.381Z","msg":"System tray service: rendering no tray"}
{"level":30,"time":"2021-08-28T16:48:37.381Z","msg":"Begin ensuring permissions"}
{"level":30,"time":"2021-08-28T16:48:37.384Z","msg":"Ensuring file permissions for 4 files"}
{"level":30,"time":"2021-08-28T16:48:37.385Z","msg":"Finish ensuring permissions in 4ms"}
{"level":30,"time":"2021-08-28T16:48:38.776Z","msg":"sending `database-ready`"}
{"level":30,"time":"2021-08-28T16:48:38.780Z","msg":"main window is ready-to-show"}
{"level":30,"time":"2021-08-28T16:48:38.780Z","msg":"showing main window"}
{"level":30,"time":"2021-08-28T16:48:38.788Z","msg":"System tray service: rendering no tray"}
{"level":30,"time":"2021-08-28T16:48:39.296Z","msg":"Updating BrowserWindow config: {\"maximized\":false,\"autoHideMenuBar\":false,\"fullscreen\":false,\"width\":800,\"height\":610,\"x\":53,\"y\":102}"}
{"level":30,"time":"2021-08-28T16:48:39.296Z","msg":"config/set: Saving ephemeral config to disk"}
{"level":30,"time":"2021-08-28T16:48:39.640Z","msg":"updater/start: Updates disabled - not starting new version checks"}
{"level":30,"time":"2021-08-28T16:48:39.672Z","msg":"App loaded - time: 2412"}
{"level":30,"time":"2021-08-28T16:48:39.672Z","msg":"SQL init - time: 16"}
{"level":30,"time":"2021-08-28T16:48:39.672Z","msg":"Preload - time: 1051"}
{"level":30,"time":"2021-08-28T16:48:39.672Z","msg":"WebSocket connect - time: 843"}
{"level":30,"time":"2021-08-28T16:48:39.672Z","msg":"Processed count: 0"}
{"level":30,"time":"2021-08-28T16:48:39.672Z","msg":"Messages per second: 0"}
{"level":30,"time":"2021-08-28T16:48:42.539Z","msg":"Updating BrowserWindow config: {\"maximized\":false,\"autoHideMenuBar\":false,\"fullscreen\":false,\"width\":800,\"height\":610,\"x\":926,\"y\":146}"}
{"level":30,"time":"2021-08-28T16:48:42.539Z","msg":"config/set: Saving ephemeral config to disk"}
{"level":30,"time":"2021-08-28T17:01:58.561Z","msg":"System tray service: setting unread count to 1"}
{"level":30,"time":"2021-08-28T17:01:58.561Z","msg":"System tray service: rendering no tray"}
{"level":30,"time":"2021-08-28T17:01:58.678Z","msg":"Approving request for permission 'notifications'"}
{"level":30,"time":"2021-08-28T17:11:59.397Z","msg":"System tray service: setting unread count to 0"}
{"level":30,"time":"2021-08-28T17:11:59.397Z","msg":"System tray service: rendering no tray"}
{"level":30,"time":"2021-08-28T18:03:08.123Z","msg":"ts/sql/main: slow query commitSessionsAndUnprocessed duration=75ms"}
{"level":30,"time":"2021-08-28T18:03:08.200Z","msg":"ts/sql/main: slow query commitSessionsAndUnprocessed duration=77ms"}
{"level":30,"time":"2021-08-28T18:03:08.495Z","msg":"ts/sql/main: slow query saveMessage duration=80ms"}
{"level":30,"time":"2021-08-28T18:03:08.626Z","msg":"ts/sql/main: slow query commitSessionsAndUnprocessed duration=85ms"}
{"level":30,"time":"2021-08-28T18:03:08.709Z","msg":"ts/sql/main: slow query commitSessionsAndUnprocessed duration=83ms"}
{"level":30,"time":"2021-08-28T18:03:08.819Z","msg":"ts/sql/main: slow query insertSentProto duration=61ms"}
{"level":30,"time":"2021-08-28T18:03:08.875Z","msg":"ts/sql/main: slow query saveMessage duration=55ms"}
{"level":30,"time":"2021-08-28T18:03:08.937Z","msg":"ts/sql/main: slow query updateConversations duration=62ms"}
{"level":30,"time":"2021-08-28T18:03:08.997Z","msg":"ts/sql/main: slow query saveMessage duration=60ms"}
{"level":30,"time":"2021-08-28T18:03:09.070Z","msg":"ts/sql/main: slow query commitSessionsAndUnprocessed duration=69ms"}
{"level":30,"time":"2021-08-28T18:03:09.139Z","msg":"ts/sql/main: slow query commitSessionsAndUnprocessed duration=69ms"}
{"level":30,"time":"2021-08-28T18:03:09.282Z","msg":"ts/sql/main: slow query insertSentProto duration=81ms"}
{"level":30,"time":"2021-08-28T18:03:09.361Z","msg":"ts/sql/main: slow query saveMessage duration=69ms"}
{"level":30,"time":"2021-08-28T18:03:09.423Z","msg":"ts/sql/main: slow query commitSessionsAndUnprocessed duration=59ms"}
{"level":30,"time":"2021-08-28T18:03:09.491Z","msg":"ts/sql/main: slow query commitSessionsAndUnprocessed duration=67ms"}
{"level":30,"time":"2021-08-28T18:03:09.571Z","msg":"ts/sql/main: slow query createOrUpdateItem duration=81ms"}
{"level":30,"time":"2021-08-28T18:03:09.753Z","msg":"ts/sql/main: slow query commitSessionsAndUnprocessed duration=82ms"}
{"level":30,"time":"2021-08-28T18:03:09.836Z","msg":"ts/sql/main: slow query saveMessage duration=70ms"}
{"level":30,"time":"2021-08-28T18:03:09.897Z","msg":"ts/sql/main: slow query deleteSentProtoRecipient duration=61ms"}
{"level":30,"time":"2021-08-28T18:03:09.960Z","msg":"ts/sql/main: slow query updateConversations duration=63ms"}
{"level":30,"time":"2021-08-28T18:03:10.027Z","msg":"ts/sql/main: slow query removeUnprocessed duration=67ms"}
{"level":30,"time":"2021-08-28T18:03:10.609Z","msg":"ts/sql/main: slow query updateConversations duration=79ms"}
{"level":30,"time":"2021-08-28T18:03:11.356Z","msg":"ts/sql/main: slow query updateConversations duration=74ms"}
{"level":30,"time":"2021-08-28T18:03:12.782Z","msg":"ts/sql/main: slow query updateConversations duration=74ms"}
{"level":30,"time":"2021-08-28T18:03:12.850Z","msg":"ts/sql/main: slow query commitSessionsAndUnprocessed duration=68ms"}
{"level":30,"time":"2021-08-28T18:03:12.921Z","msg":"ts/sql/main: slow query deleteSentProtoRecipient duration=68ms"}
{"level":30,"time":"2021-08-28T18:03:12.996Z","msg":"ts/sql/main: slow query removeUnprocessed duration=69ms"}
{"level":30,"time":"2021-08-28T18:03:13.835Z","msg":"ts/sql/main: slow query updateConversations duration=79ms"}
{"level":30,"time":"2021-08-28T18:03:15.465Z","msg":"ts/sql/main: slow query updateConversations duration=68ms"}
{"level":30,"time":"2021-08-28T18:03:16.791Z","msg":"ts/sql/main: slow query updateConversations duration=83ms"}
{"level":30,"time":"2021-08-28T18:03:18.732Z","msg":"ts/sql/main: slow query commitSessionsAndUnprocessed duration=73ms"}
{"level":30,"time":"2021-08-28T18:03:18.794Z","msg":"ts/sql/main: slow query commitSessionsAndUnprocessed duration=62ms"}
{"level":30,"time":"2021-08-28T18:03:19.445Z","msg":"ts/sql/main: slow query updateConversations duration=74ms"}
{"level":30,"time":"2021-08-28T18:03:20.008Z","msg":"ts/sql/main: slow query saveMessage duration=97ms"}
{"level":30,"time":"2021-08-28T18:03:20.107Z","msg":"ts/sql/main: slow query commitSessionsAndUnprocessed duration=75ms"}
{"level":30,"time":"2021-08-28T18:03:20.183Z","msg":"ts/sql/main: slow query commitSessionsAndUnprocessed duration=76ms"}
{"level":30,"time":"2021-08-28T18:03:20.246Z","msg":"ts/sql/main: slow query updateConversations duration=63ms"}
{"level":30,"time":"2021-08-28T18:03:20.306Z","msg":"ts/sql/main: slow query insertSentProto duration=59ms"}
{"level":30,"time":"2021-08-28T18:03:20.474Z","msg":"ts/sql/main: slow query saveMessage duration=166ms"}
{"level":30,"time":"2021-08-28T18:03:20.662Z","msg":"ts/sql/main: slow query saveMessage duration=152ms"}
{"level":30,"time":"2021-08-28T18:03:20.723Z","msg":"ts/sql/main: slow query updateConversations duration=59ms"}
{"level":30,"time":"2021-08-28T18:03:20.782Z","msg":"ts/sql/main: slow query commitSessionsAndUnprocessed duration=59ms"}
{"level":30,"time":"2021-08-28T18:03:20.876Z","msg":"ts/sql/main: slow query commitSessionsAndUnprocessed duration=94ms"}
{"level":30,"time":"2021-08-28T18:03:20.968Z","msg":"ts/sql/main: slow query createOrUpdateItem duration=66ms"}
{"level":30,"time":"2021-08-28T18:03:21.053Z","msg":"ts/sql/main: slow query insertSentProto duration=85ms"}
{"level":30,"time":"2021-08-28T18:03:21.137Z","msg":"ts/sql/main: slow query commitSessionsAndUnprocessed duration=84ms"}
{"level":30,"time":"2021-08-28T18:03:21.248Z","msg":"ts/sql/main: slow query saveMessage duration=111ms"}
{"level":30,"time":"2021-08-28T18:03:21.330Z","msg":"ts/sql/main: slow query updateConversations duration=81ms"}
{"level":30,"time":"2021-08-28T18:03:21.426Z","msg":"ts/sql/main: slow query removeUnprocessed duration=95ms"}
{"level":30,"time":"2021-08-28T18:03:21.497Z","msg":"ts/sql/main: slow query saveMessage duration=71ms"}
{"level":30,"time":"2021-08-28T18:03:21.573Z","msg":"ts/sql/main: slow query deleteSentProtoRecipient duration=76ms"}
{"level":30,"time":"2021-08-28T18:03:21.658Z","msg":"ts/sql/main: slow query commitSessionsAndUnprocessed duration=81ms"}
{"level":30,"time":"2021-08-28T18:03:21.733Z","msg":"ts/sql/main: slow query deleteSentProtoRecipient duration=71ms"}
{"level":30,"time":"2021-08-28T18:03:21.822Z","msg":"ts/sql/main: slow query removeUnprocessed duration=87ms"}
{"level":30,"time":"2021-08-28T18:03:22.168Z","msg":"ts/sql/main: slow query updateConversations duration=89ms"}
{"level":30,"time":"2021-08-28T18:03:36.009Z","msg":"ts/sql/main: slow query commitSessionsAndUnprocessed duration=85ms"}
{"level":30,"time":"2021-08-28T18:03:36.091Z","msg":"ts/sql/main: slow query commitSessionsAndUnprocessed duration=81ms"}
{"level":30,"time":"2021-08-28T18:03:37.330Z","msg":"ts/sql/main: slow query updateConversations duration=64ms"}
{"level":30,"time":"2021-08-28T18:03:39.034Z","msg":"ts/sql/main: slow query createOrUpdateItem duration=71ms"}
{"level":30,"time":"2021-08-28T18:03:40.519Z","msg":"ts/sql/main: slow query updateConversations duration=71ms"}
{"level":30,"time":"2021-08-28T18:03:41.372Z","msg":"ts/sql/main: slow query updateConversations duration=65ms"}
{"level":30,"time":"2021-08-28T18:03:43.679Z","msg":"ts/sql/main: slow query updateConversations duration=71ms"}
{"level":30,"time":"2021-08-28T18:03:44.855Z","msg":"ts/sql/main: slow query updateConversations duration=77ms"}
{"level":30,"time":"2021-08-28T18:03:45.522Z","msg":"ts/sql/main: slow query saveMessage duration=110ms"}
{"level":30,"time":"2021-08-28T18:03:45.618Z","msg":"ts/sql/main: slow query commitSessionsAndUnprocessed duration=71ms"}
{"level":30,"time":"2021-08-28T18:03:45.686Z","msg":"ts/sql/main: slow query commitSessionsAndUnprocessed duration=68ms"}
{"level":30,"time":"2021-08-28T18:03:45.815Z","msg":"ts/sql/main: slow query insertSentProto duration=71ms"}
{"level":30,"time":"2021-08-28T18:03:45.884Z","msg":"ts/sql/main: slow query saveMessage duration=68ms"}
{"level":30,"time":"2021-08-28T18:03:45.978Z","msg":"ts/sql/main: slow query saveMessage duration=69ms"}
{"level":30,"time":"2021-08-28T18:03:46.046Z","msg":"ts/sql/main: slow query updateConversations duration=68ms"}
{"level":30,"time":"2021-08-28T18:03:46.116Z","msg":"ts/sql/main: slow query commitSessionsAndUnprocessed duration=70ms"}
{"level":30,"time":"2021-08-28T18:03:46.185Z","msg":"ts/sql/main: slow query commitSessionsAndUnprocessed duration=69ms"}
{"level":30,"time":"2021-08-28T18:03:46.340Z","msg":"ts/sql/main: slow query insertSentProto duration=71ms"}
{"level":30,"time":"2021-08-28T18:03:46.419Z","msg":"ts/sql/main: slow query saveMessage duration=69ms"}
{"level":30,"time":"2021-08-28T18:03:46.489Z","msg":"ts/sql/main: slow query createOrUpdateItem duration=70ms"}
{"level":30,"time":"2021-08-28T18:03:46.560Z","msg":"ts/sql/main: slow query commitSessionsAndUnprocessed duration=70ms"}
{"level":30,"time":"2021-08-28T18:03:46.628Z","msg":"ts/sql/main: slow query commitSessionsAndUnprocessed duration=68ms"}
{"level":30,"time":"2021-08-28T18:03:46.701Z","msg":"ts/sql/main: slow query commitSessionsAndUnprocessed duration=68ms"}
{"level":30,"time":"2021-08-28T18:03:46.768Z","msg":"ts/sql/main: slow query updateConversations duration=67ms"}
{"level":30,"time":"2021-08-28T18:03:46.846Z","msg":"ts/sql/main: slow query saveMessage duration=67ms"}
{"level":30,"time":"2021-08-28T18:03:46.915Z","msg":"ts/sql/main: slow query deleteSentProtoRecipient duration=69ms"}
{"level":30,"time":"2021-08-28T18:03:46.983Z","msg":"ts/sql/main: slow query removeUnprocessed duration=68ms"}
{"level":30,"time":"2021-08-28T18:03:47.571Z","msg":"ts/sql/main: slow query updateConversations duration=84ms"}
{"level":30,"time":"2021-08-28T18:03:47.645Z","msg":"ts/sql/main: slow query commitSessionsAndUnprocessed duration=63ms"}
{"level":30,"time":"2021-08-28T18:03:47.712Z","msg":"ts/sql/main: slow query deleteSentProtoRecipient duration=65ms"}
{"level":30,"time":"2021-08-28T18:03:47.786Z","msg":"ts/sql/main: slow query removeUnprocessed duration=65ms"}
{"level":30,"time":"2021-08-28T18:03:48.576Z","msg":"ts/sql/main: slow query commitSessionsAndUnprocessed duration=77ms"}
{"level":30,"time":"2021-08-28T18:03:48.636Z","msg":"ts/sql/main: slow query commitSessionsAndUnprocessed duration=60ms"}
{"level":30,"time":"2021-08-28T18:05:16.945Z","msg":"close event {\"shouldQuit\":false}"}
{"level":30,"time":"2021-08-28T18:05:16.946Z","msg":"System tray service: rendering no tray"}
{"level":30,"time":"2021-08-28T18:05:16.946Z","msg":"requestShutdown: Requesting close of mainWindow..."}
{"level":30,"time":"2021-08-28T18:05:16.969Z","msg":"requestShutdown: Response received"}
{"level":30,"time":"2021-08-28T18:05:16.971Z","msg":"before-quit event {\"readyForShutdown\":true,\"shouldQuit\":false}"}
{"level":30,"time":"2021-08-28T18:05:16.971Z","msg":"close event {\"readyForShutdown\":true,\"shouldQuit\":true}"}
{"level":30,"time":"2021-08-28T18:05:16.973Z","msg":"System tray service: updating main window. Previously, there was a window, and now there is not"}
{"level":30,"time":"2021-08-29T04:08:58.896Z","msg":"app ready"}
{"level":30,"time":"2021-08-29T04:08:58.896Z","msg":"starting version 5.15.0"}
{"level":30,"time":"2021-08-29T04:08:58.896Z","msg":"media access status"}
{"level":30,"time":"2021-08-29T04:08:58.927Z","msg":"got fast spellcheck setting true"}
{"level":30,"time":"2021-08-29T04:08:58.928Z","msg":"getSystemTraySetting had no flags and did no DB lookups. Returning DoNotUseSystemTray"}
{"level":30,"time":"2021-08-29T04:08:58.928Z","msg":"Initializing BrowserWindow config: {\"show\":false,\"width\":800,\"height\":610,\"minWidth\":680,\"minHeight\":550,\"autoHideMenuBar\":false,\"titleBarStyle\":\"default\",\"backgroundColor\":\"#3a76f0\",\"webPreferences\":{\"devTools\":false,\"nodeIntegration\":false,\"nodeIntegrationInWorker\":false,\"contextIsolation\":false,\"enableRemoteModule\":true,\"preload\":\"/usr/lib/signal-desktop/resources/app.asar/preload.bundle.js\",\"nativeWindowOpen\":true,\"spellcheck\":true,\"backgroundThrottling\":false},\"icon\":\"/usr/lib/signal-desktop/resources/app.asar/images/signal-logo-desktop-linux.png\",\"x\":926,\"y\":146}"}
{"level":30,"time":"2021-08-29T04:08:59.086Z","msg":"spellcheck: user locale: en-US"}
{"level":30,"time":"2021-08-29T04:08:59.086Z","msg":"spellcheck: available spellchecker languages:  [\"af\",\"bg\",\"ca\",\"cs\",\"cy\",\"da\",\"de\",\"de-DE\",\"el\",\"en-AU\",\"en-CA\",\"en-GB\",\"en-GB-oxendict\",\"en-US\",\"es\",\"es-419\",\"es-AR\",\"es-ES\",\"es-MX\",\"es-US\",\"et\",\"fa\",\"fo\",\"fr\",\"fr-FR\",\"he\",\"hi\",\"hr\",\"hu\",\"hy\",\"id\",\"it\",\"it-IT\",\"ko\",\"lt\",\"lv\",\"nb\",\"nl\",\"pl\",\"pt\",\"pt-BR\",\"pt-PT\",\"ro\",\"ru\",\"sh\",\"sk\",\"sl\",\"sq\",\"sr\",\"sv\",\"ta\",\"tg\",\"tr\",\"uk\",\"vi\"]"}
{"level":30,"time":"2021-08-29T04:08:59.086Z","msg":"spellcheck: setting languages to:  [\"en-US\"]"}
{"level":30,"time":"2021-08-29T04:08:59.102Z","msg":"got fast spellcheck setting true"}
{"level":30,"time":"2021-08-29T04:08:59.106Z","msg":"System tray service: created"}
{"level":30,"time":"2021-08-29T04:08:59.106Z","msg":"System tray service: updating main window. Previously, there was not a window, and now there is"}
{"level":30,"time":"2021-08-29T04:08:59.106Z","msg":"System tray service: rendering no tray"}
{"level":30,"time":"2021-08-29T04:08:59.106Z","msg":"Begin ensuring permissions"}
{"level":30,"time":"2021-08-29T04:08:59.121Z","msg":"Ensuring file permissions for 4 files"}
{"level":30,"time":"2021-08-29T04:08:59.123Z","msg":"Finish ensuring permissions in 17ms"}
{"level":30,"time":"2021-08-29T04:09:00.883Z","msg":"sending `database-ready`"}
{"level":30,"time":"2021-08-29T04:09:00.888Z","msg":"main window is ready-to-show"}
{"level":30,"time":"2021-08-29T04:09:00.888Z","msg":"showing main window"}
{"level":30,"time":"2021-08-29T04:09:00.895Z","msg":"System tray service: rendering no tray"}
{"level":30,"time":"2021-08-29T04:09:01.404Z","msg":"Updating BrowserWindow config: {\"maximized\":false,\"autoHideMenuBar\":false,\"fullscreen\":false,\"width\":800,\"height\":610,\"x\":927,\"y\":164}"}
{"level":30,"time":"2021-08-29T04:09:01.404Z","msg":"config/set: Saving ephemeral config to disk"}
{"level":30,"time":"2021-08-29T04:09:02.029Z","msg":"updater/start: Updates disabled - not starting new version checks"}
{"level":30,"time":"2021-08-29T04:09:02.059Z","msg":"App loaded - time: 3240"}
{"level":30,"time":"2021-08-29T04:09:02.059Z","msg":"SQL init - time: 68"}
{"level":30,"time":"2021-08-29T04:09:02.059Z","msg":"Preload - time: 1250"}
{"level":30,"time":"2021-08-29T04:09:02.059Z","msg":"WebSocket connect - time: 877"}
{"level":30,"time":"2021-08-29T04:09:02.059Z","msg":"Processed count: 8"}
{"level":30,"time":"2021-08-29T04:09:02.059Z","msg":"Messages per second: 7.187780772686433"}
{"level":30,"time":"2021-08-29T04:09:03.025Z","msg":"close event {\"shouldQuit\":false}"}
{"level":30,"time":"2021-08-29T04:09:03.026Z","msg":"System tray service: rendering no tray"}
{"level":30,"time":"2021-08-29T04:09:03.026Z","msg":"requestShutdown: Requesting close of mainWindow..."}
{"level":30,"time":"2021-08-29T04:09:03.044Z","msg":"requestShutdown: Response received"}
{"level":30,"time":"2021-08-29T04:09:03.048Z","msg":"before-quit event {\"readyForShutdown\":true,\"shouldQuit\":false}"}
{"level":30,"time":"2021-08-29T04:09:03.048Z","msg":"close event {\"readyForShutdown\":true,\"shouldQuit\":true}"}
{"level":30,"time":"2021-08-29T04:09:03.061Z","msg":"System tray service: updating main window. Previously, there was a window, and now there is not"}
{"level":30,"time":"2021-08-29T05:56:47.662Z","msg":"app ready"}
{"level":30,"time":"2021-08-29T05:56:47.662Z","msg":"starting version 5.15.0"}
{"level":30,"time":"2021-08-29T05:56:47.662Z","msg":"media access status"}
{"level":30,"time":"2021-08-29T05:56:47.684Z","msg":"got fast spellcheck setting true"}
{"level":30,"time":"2021-08-29T05:56:47.685Z","msg":"getSystemTraySetting had no flags and did no DB lookups. Returning DoNotUseSystemTray"}
{"level":30,"time":"2021-08-29T05:56:47.685Z","msg":"Initializing BrowserWindow config: {\"show\":false,\"width\":800,\"height\":610,\"minWidth\":680,\"minHeight\":550,\"autoHideMenuBar\":false,\"titleBarStyle\":\"default\",\"backgroundColor\":\"#3a76f0\",\"webPreferences\":{\"devTools\":false,\"nodeIntegration\":false,\"nodeIntegrationInWorker\":false,\"contextIsolation\":false,\"enableRemoteModule\":true,\"preload\":\"/usr/lib/signal-desktop/resources/app.asar/preload.bundle.js\",\"nativeWindowOpen\":true,\"spellcheck\":true,\"backgroundThrottling\":false},\"icon\":\"/usr/lib/signal-desktop/resources/app.asar/images/signal-logo-desktop-linux.png\",\"x\":927,\"y\":164}"}
{"level":30,"time":"2021-08-29T05:56:47.758Z","msg":"spellcheck: user locale: en-US"}
{"level":30,"time":"2021-08-29T05:56:47.758Z","msg":"spellcheck: available spellchecker languages:  [\"af\",\"bg\",\"ca\",\"cs\",\"cy\",\"da\",\"de\",\"de-DE\",\"el\",\"en-AU\",\"en-CA\",\"en-GB\",\"en-GB-oxendict\",\"en-US\",\"es\",\"es-419\",\"es-AR\",\"es-ES\",\"es-MX\",\"es-US\",\"et\",\"fa\",\"fo\",\"fr\",\"fr-FR\",\"he\",\"hi\",\"hr\",\"hu\",\"hy\",\"id\",\"it\",\"it-IT\",\"ko\",\"lt\",\"lv\",\"nb\",\"nl\",\"pl\",\"pt\",\"pt-BR\",\"pt-PT\",\"ro\",\"ru\",\"sh\",\"sk\",\"sl\",\"sq\",\"sr\",\"sv\",\"ta\",\"tg\",\"tr\",\"uk\",\"vi\"]"}
{"level":30,"time":"2021-08-29T05:56:47.758Z","msg":"spellcheck: setting languages to:  [\"en-US\"]"}
{"level":30,"time":"2021-08-29T05:56:47.766Z","msg":"got fast spellcheck setting true"}
{"level":30,"time":"2021-08-29T05:56:47.776Z","msg":"System tray service: created"}
{"level":30,"time":"2021-08-29T05:56:47.777Z","msg":"System tray service: updating main window. Previously, there was not a window, and now there is"}
{"level":30,"time":"2021-08-29T05:56:47.777Z","msg":"System tray service: rendering no tray"}
{"level":30,"time":"2021-08-29T05:56:47.777Z","msg":"Begin ensuring permissions"}
{"level":30,"time":"2021-08-29T05:56:47.780Z","msg":"Ensuring file permissions for 4 files"}
{"level":30,"time":"2021-08-29T05:56:47.782Z","msg":"Finish ensuring permissions in 5ms"}
{"level":30,"time":"2021-08-29T05:56:49.241Z","msg":"sending `database-ready`"}
{"level":30,"time":"2021-08-29T05:56:49.245Z","msg":"main window is ready-to-show"}
{"level":30,"time":"2021-08-29T05:56:49.245Z","msg":"showing main window"}
{"level":30,"time":"2021-08-29T05:56:49.251Z","msg":"System tray service: rendering no tray"}
{"level":30,"time":"2021-08-29T05:56:49.763Z","msg":"Updating BrowserWindow config: {\"maximized\":false,\"autoHideMenuBar\":false,\"fullscreen\":false,\"width\":800,\"height\":610,\"x\":928,\"y\":182}"}
{"level":30,"time":"2021-08-29T05:56:49.763Z","msg":"config/set: Saving ephemeral config to disk"}
{"level":30,"time":"2021-08-29T05:56:50.225Z","msg":"updater/start: Updates disabled - not starting new version checks"}
{"level":30,"time":"2021-08-29T05:56:50.257Z","msg":"App loaded - time: 2635"}
{"level":30,"time":"2021-08-29T05:56:50.257Z","msg":"SQL init - time: 16"}
{"level":30,"time":"2021-08-29T05:56:50.257Z","msg":"Preload - time: 1069"}
{"level":30,"time":"2021-08-29T05:56:50.257Z","msg":"WebSocket connect - time: 885"}
{"level":30,"time":"2021-08-29T05:56:50.257Z","msg":"Processed count: 1"}
{"level":30,"time":"2021-08-29T05:56:50.257Z","msg":"Messages per second: 1.4684287812041117"}
{"level":30,"time":"2021-08-29T07:01:49.936Z","msg":"ts/sql/main: slow query createOrUpdateItem duration=485ms"}
{"level":30,"time":"2021-08-29T12:35:29.652Z","msg":"System tray service: setting unread count to 1"}
{"level":30,"time":"2021-08-29T12:35:29.652Z","msg":"System tray service: rendering no tray"}
{"level":30,"time":"2021-08-29T12:35:29.780Z","msg":"Approving request for permission 'notifications'"}
{"level":30,"time":"2021-08-29T12:35:52.521Z","msg":"System tray service: setting unread count to 0"}
{"level":30,"time":"2021-08-29T12:35:52.522Z","msg":"System tray service: rendering no tray"}
{"level":30,"time":"2021-08-29T12:59:19.386Z","msg":"System tray service: setting unread count to 1"}
{"level":30,"time":"2021-08-29T12:59:19.386Z","msg":"System tray service: rendering no tray"}
{"level":30,"time":"2021-08-29T12:59:19.523Z","msg":"Approving request for permission 'notifications'"}
{"level":30,"time":"2021-08-29T12:59:29.966Z","msg":"System tray service: setting unread count to 0"}
{"level":30,"time":"2021-08-29T12:59:29.966Z","msg":"System tray service: rendering no tray"}
{"level":30,"time":"2021-08-29T13:06:26.548Z","msg":"System tray service: setting unread count to 1"}
{"level":30,"time":"2021-08-29T13:06:26.548Z","msg":"System tray service: rendering no tray"}
{"level":30,"time":"2021-08-29T13:06:26.661Z","msg":"Approving request for permission 'notifications'"}
{"level":30,"time":"2021-08-29T13:06:34.604Z","msg":"System tray service: setting unread count to 0"}
{"level":30,"time":"2021-08-29T13:06:34.604Z","msg":"System tray service: rendering no tray"}
{"level":30,"time":"2021-08-29T13:06:53.322Z","msg":"System tray service: setting unread count to 1"}
{"level":30,"time":"2021-08-29T13:06:53.322Z","msg":"System tray service: rendering no tray"}
{"level":30,"time":"2021-08-29T13:06:53.437Z","msg":"Approving request for permission 'notifications'"}
{"level":30,"time":"2021-08-29T13:07:08.327Z","msg":"System tray service: setting unread count to 0"}
{"level":30,"time":"2021-08-29T13:07:08.327Z","msg":"System tray service: rendering no tray"}
{"level":30,"time":"2021-08-29T13:48:26.656Z","msg":"close event {\"shouldQuit\":false}"}
{"level":30,"time":"2021-08-29T13:48:26.657Z","msg":"System tray service: rendering no tray"}
{"level":30,"time":"2021-08-29T13:48:26.657Z","msg":"requestShutdown: Requesting close of mainWindow..."}
{"level":30,"time":"2021-08-29T13:48:26.685Z","msg":"requestShutdown: Response received"}
{"level":30,"time":"2021-08-29T13:48:26.693Z","msg":"before-quit event {\"readyForShutdown\":true,\"shouldQuit\":false}"}
{"level":30,"time":"2021-08-29T13:48:26.693Z","msg":"close event {\"readyForShutdown\":true,\"shouldQuit\":true}"}
{"level":30,"time":"2021-08-29T13:48:26.701Z","msg":"System tray service: updating main window. Previously, there was a window, and now there is not"}
{"level":30,"time":"2021-08-29T15:17:57.242Z","msg":"app ready"}
{"level":30,"time":"2021-08-29T15:17:57.243Z","msg":"starting version 5.15.0"}
{"level":30,"time":"2021-08-29T15:17:57.243Z","msg":"media access status"}
{"level":30,"time":"2021-08-29T15:17:57.272Z","msg":"got fast spellcheck setting true"}
{"level":30,"time":"2021-08-29T15:17:57.272Z","msg":"getSystemTraySetting had no flags and did no DB lookups. Returning DoNotUseSystemTray"}
{"level":30,"time":"2021-08-29T15:17:57.273Z","msg":"Initializing BrowserWindow config: {\"show\":false,\"width\":800,\"height\":610,\"minWidth\":680,\"minHeight\":550,\"autoHideMenuBar\":false,\"titleBarStyle\":\"default\",\"backgroundColor\":\"#3a76f0\",\"webPreferences\":{\"devTools\":false,\"nodeIntegration\":false,\"nodeIntegrationInWorker\":false,\"contextIsolation\":false,\"enableRemoteModule\":true,\"preload\":\"/usr/lib/signal-desktop/resources/app.asar/preload.bundle.js\",\"nativeWindowOpen\":true,\"spellcheck\":true,\"backgroundThrottling\":false},\"icon\":\"/usr/lib/signal-desktop/resources/app.asar/images/signal-logo-desktop-linux.png\",\"x\":928,\"y\":182}"}
{"level":30,"time":"2021-08-29T15:17:57.359Z","msg":"spellcheck: user locale: en-US"}
{"level":30,"time":"2021-08-29T15:17:57.359Z","msg":"spellcheck: available spellchecker languages:  [\"af\",\"bg\",\"ca\",\"cs\",\"cy\",\"da\",\"de\",\"de-DE\",\"el\",\"en-AU\",\"en-CA\",\"en-GB\",\"en-GB-oxendict\",\"en-US\",\"es\",\"es-419\",\"es-AR\",\"es-ES\",\"es-MX\",\"es-US\",\"et\",\"fa\",\"fo\",\"fr\",\"fr-FR\",\"he\",\"hi\",\"hr\",\"hu\",\"hy\",\"id\",\"it\",\"it-IT\",\"ko\",\"lt\",\"lv\",\"nb\",\"nl\",\"pl\",\"pt\",\"pt-BR\",\"pt-PT\",\"ro\",\"ru\",\"sh\",\"sk\",\"sl\",\"sq\",\"sr\",\"sv\",\"ta\",\"tg\",\"tr\",\"uk\",\"vi\"]"}
{"level":30,"time":"2021-08-29T15:17:57.359Z","msg":"spellcheck: setting languages to:  [\"en-US\"]"}
{"level":30,"time":"2021-08-29T15:17:57.375Z","msg":"got fast spellcheck setting true"}
{"level":30,"time":"2021-08-29T15:17:57.379Z","msg":"System tray service: created"}
{"level":30,"time":"2021-08-29T15:17:57.379Z","msg":"System tray service: updating main window. Previously, there was not a window, and now there is"}
{"level":30,"time":"2021-08-29T15:17:57.379Z","msg":"System tray service: rendering no tray"}
{"level":30,"time":"2021-08-29T15:17:57.379Z","msg":"Begin ensuring permissions"}
{"level":30,"time":"2021-08-29T15:17:57.393Z","msg":"Ensuring file permissions for 4 files"}
{"level":30,"time":"2021-08-29T15:17:57.394Z","msg":"Finish ensuring permissions in 15ms"}
{"level":30,"time":"2021-08-29T15:17:59.345Z","msg":"sending `database-ready`"}
{"level":30,"time":"2021-08-29T15:17:59.352Z","msg":"main window is ready-to-show"}
{"level":30,"time":"2021-08-29T15:17:59.352Z","msg":"showing main window"}
{"level":30,"time":"2021-08-29T15:17:59.360Z","msg":"System tray service: rendering no tray"}
{"level":30,"time":"2021-08-29T15:17:59.861Z","msg":"Updating BrowserWindow config: {\"maximized\":false,\"autoHideMenuBar\":false,\"fullscreen\":false,\"width\":800,\"height\":610,\"x\":929,\"y\":200}"}
{"level":30,"time":"2021-08-29T15:17:59.861Z","msg":"config/set: Saving ephemeral config to disk"}
{"level":30,"time":"2021-08-29T15:18:00.214Z","msg":"updater/start: Updates disabled - not starting new version checks"}
{"level":30,"time":"2021-08-29T15:18:00.237Z","msg":"App loaded - time: 3082"}
{"level":30,"time":"2021-08-29T15:18:00.237Z","msg":"SQL init - time: 69"}
{"level":30,"time":"2021-08-29T15:18:00.237Z","msg":"Preload - time: 1433"}
{"level":30,"time":"2021-08-29T15:18:00.237Z","msg":"WebSocket connect - time: 894"}
{"level":30,"time":"2021-08-29T15:18:00.237Z","msg":"Processed count: 0"}
{"level":30,"time":"2021-08-29T15:18:00.237Z","msg":"Messages per second: 0"}
{"level":30,"time":"2021-08-29T17:37:52.185Z","msg":"close event {\"shouldQuit\":false}"}
{"level":30,"time":"2021-08-29T17:37:52.185Z","msg":"System tray service: rendering no tray"}
{"level":30,"time":"2021-08-29T17:37:52.186Z","msg":"requestShutdown: Requesting close of mainWindow..."}
{"level":30,"time":"2021-08-29T17:37:52.214Z","msg":"requestShutdown: Response received"}
{"level":30,"time":"2021-08-29T17:37:52.216Z","msg":"before-quit event {\"readyForShutdown\":true,\"shouldQuit\":false}"}
{"level":30,"time":"2021-08-29T17:37:52.217Z","msg":"close event {\"readyForShutdown\":true,\"shouldQuit\":true}"}
{"level":30,"time":"2021-08-29T17:37:52.225Z","msg":"System tray service: updating main window. Previously, there was a window, and now there is not"}
{"level":30,"time":"2021-08-30T10:27:29.802Z","pid":101778,"hostname":"arch-desktop","msg":"app ready"}
{"level":30,"time":"2021-08-30T10:27:29.802Z","pid":101778,"hostname":"arch-desktop","msg":"starting version 5.15.0"}
{"level":30,"time":"2021-08-30T10:27:29.802Z","pid":101778,"hostname":"arch-desktop","msg":"media access status"}
{"level":30,"time":"2021-08-30T10:27:29.823Z","pid":101778,"hostname":"arch-desktop","msg":"got fast spellcheck setting true"}
{"level":30,"time":"2021-08-30T10:27:29.824Z","pid":101778,"hostname":"arch-desktop","msg":"getSystemTraySetting had no flags and did no DB lookups. Returning DoNotUseSystemTray"}
{"level":30,"time":"2021-08-30T10:27:29.824Z","pid":101778,"hostname":"arch-desktop","msg":"Initializing BrowserWindow config: {\"show\":false,\"width\":800,\"height\":610,\"minWidth\":680,\"minHeight\":550,\"autoHideMenuBar\":false,\"titleBarStyle\":\"default\",\"backgroundColor\":\"#3a76f0\",\"webPreferences\":{\"devTools\":false,\"nodeIntegration\":false,\"nodeIntegrationInWorker\":false,\"contextIsolation\":false,\"enableRemoteModule\":true,\"preload\":\"/usr/lib/signal-desktop/resources/app.asar/preload.bundle.js\",\"nativeWindowOpen\":true,\"spellcheck\":true,\"backgroundThrottling\":false},\"icon\":\"/usr/lib/signal-desktop/resources/app.asar/images/signal-logo-desktop-linux.png\",\"x\":929,\"y\":200}"}
{"level":30,"time":"2021-08-30T10:27:29.894Z","pid":101778,"hostname":"arch-desktop","msg":"spellcheck: user locale: en-US"}
{"level":30,"time":"2021-08-30T10:27:29.894Z","pid":101778,"hostname":"arch-desktop","msg":"spellcheck: available spellchecker languages:  [\"af\",\"bg\",\"ca\",\"cs\",\"cy\",\"da\",\"de\",\"de-DE\",\"el\",\"en-AU\",\"en-CA\",\"en-GB\",\"en-GB-oxendict\",\"en-US\",\"es\",\"es-419\",\"es-AR\",\"es-ES\",\"es-MX\",\"es-US\",\"et\",\"fa\",\"fo\",\"fr\",\"fr-FR\",\"he\",\"hi\",\"hr\",\"hu\",\"hy\",\"id\",\"it\",\"it-IT\",\"ko\",\"lt\",\"lv\",\"nb\",\"nl\",\"pl\",\"pt\",\"pt-BR\",\"pt-PT\",\"ro\",\"ru\",\"sh\",\"sk\",\"sl\",\"sq\",\"sr\",\"sv\",\"ta\",\"tg\",\"tr\",\"uk\",\"vi\"]"}
{"level":30,"time":"2021-08-30T10:27:29.894Z","pid":101778,"hostname":"arch-desktop","msg":"spellcheck: setting languages to:  [\"en-US\"]"}
{"level":30,"time":"2021-08-30T10:27:29.909Z","pid":101778,"hostname":"arch-desktop","msg":"got fast spellcheck setting true"}
{"level":30,"time":"2021-08-30T10:27:29.916Z","pid":101778,"hostname":"arch-desktop","msg":"System tray service: created"}
{"level":30,"time":"2021-08-30T10:27:29.916Z","pid":101778,"hostname":"arch-desktop","msg":"System tray service: updating main window. Previously, there was not a window, and now there is"}
{"level":30,"time":"2021-08-30T10:27:29.916Z","pid":101778,"hostname":"arch-desktop","msg":"System tray service: rendering no tray"}
{"level":30,"time":"2021-08-30T10:27:29.916Z","pid":101778,"hostname":"arch-desktop","msg":"Begin ensuring permissions"}
{"level":30,"time":"2021-08-30T10:27:29.922Z","pid":101778,"hostname":"arch-desktop","msg":"Ensuring file permissions for 4 files"}
{"level":30,"time":"2021-08-30T10:27:29.923Z","pid":101778,"hostname":"arch-desktop","msg":"Finish ensuring permissions in 7ms"}
{"level":30,"time":"2021-08-30T10:27:31.524Z","pid":101778,"hostname":"arch-desktop","msg":"sending `database-ready`"}
{"level":30,"time":"2021-08-30T10:27:31.530Z","pid":101778,"hostname":"arch-desktop","msg":"main window is ready-to-show"}
{"level":30,"time":"2021-08-30T10:27:31.530Z","pid":101778,"hostname":"arch-desktop","msg":"showing main window"}
{"level":30,"time":"2021-08-30T10:27:31.537Z","pid":101778,"hostname":"arch-desktop","msg":"System tray service: rendering no tray"}
{"level":30,"time":"2021-08-30T10:27:32.039Z","pid":101778,"hostname":"arch-desktop","msg":"Updating BrowserWindow config: {\"maximized\":false,\"autoHideMenuBar\":false,\"fullscreen\":false,\"width\":800,\"height\":610,\"x\":930,\"y\":218}"}
{"level":30,"time":"2021-08-30T10:27:32.039Z","pid":101778,"hostname":"arch-desktop","msg":"config/set: Saving ephemeral config to disk"}
{"level":30,"time":"2021-08-30T10:27:32.854Z","pid":101778,"hostname":"arch-desktop","msg":"updater/start: Updates disabled - not starting new version checks"}
{"level":30,"time":"2021-08-30T10:27:32.879Z","pid":101778,"hostname":"arch-desktop","msg":"App loaded - time: 3292"}
{"level":30,"time":"2021-08-30T10:27:32.879Z","pid":101778,"hostname":"arch-desktop","msg":"SQL init - time: 50"}
{"level":30,"time":"2021-08-30T10:27:32.879Z","pid":101778,"hostname":"arch-desktop","msg":"Preload - time: 1186"}
{"level":30,"time":"2021-08-30T10:27:32.879Z","pid":101778,"hostname":"arch-desktop","msg":"WebSocket connect - time: 862"}
{"level":30,"time":"2021-08-30T10:27:32.879Z","pid":101778,"hostname":"arch-desktop","msg":"Processed count: 23"}
{"level":30,"time":"2021-08-30T10:27:32.879Z","pid":101778,"hostname":"arch-desktop","msg":"Messages per second: 18.488745980707396"}
{"level":30,"time":"2021-08-30T10:27:35.792Z","pid":101778,"hostname":"arch-desktop","msg":"Updating BrowserWindow config: {\"maximized\":false,\"autoHideMenuBar\":false,\"fullscreen\":false,\"width\":800,\"height\":610,\"x\":587,\"y\":182}"}
{"level":30,"time":"2021-08-30T10:27:35.792Z","pid":101778,"hostname":"arch-desktop","msg":"config/set: Saving ephemeral config to disk"}
{"level":30,"time":"2021-08-30T10:29:58.292Z","pid":101778,"hostname":"arch-desktop","msg":"System tray service: setting unread count to 1"}
{"level":30,"time":"2021-08-30T10:29:58.293Z","pid":101778,"hostname":"arch-desktop","msg":"System tray service: rendering no tray"}
{"level":30,"time":"2021-08-30T10:29:58.411Z","pid":101778,"hostname":"arch-desktop","msg":"Approving request for permission 'notifications'"}
{"level":30,"time":"2021-08-30T10:30:00.420Z","pid":101778,"hostname":"arch-desktop","msg":"System tray service: setting unread count to 0"}
{"level":30,"time":"2021-08-30T10:30:00.420Z","pid":101778,"hostname":"arch-desktop","msg":"System tray service: rendering no tray"}
{"level":30,"time":"2021-08-30T10:31:58.323Z","pid":101778,"hostname":"arch-desktop","msg":"System tray service: setting unread count to 1"}
{"level":30,"time":"2021-08-30T10:31:58.323Z","pid":101778,"hostname":"arch-desktop","msg":"System tray service: rendering no tray"}
{"level":30,"time":"2021-08-30T10:31:58.423Z","pid":101778,"hostname":"arch-desktop","msg":"Approving request for permission 'notifications'"}
{"level":30,"time":"2021-08-30T10:33:49.093Z","pid":101778,"hostname":"arch-desktop","msg":"System tray service: setting unread count to 0"}
{"level":30,"time":"2021-08-30T10:33:49.093Z","pid":101778,"hostname":"arch-desktop","msg":"System tray service: rendering no tray"}
{"level":30,"time":"2021-08-30T10:34:42.769Z","pid":101778,"hostname":"arch-desktop","msg":"System tray service: setting unread count to 1"}
{"level":30,"time":"2021-08-30T10:34:42.769Z","pid":101778,"hostname":"arch-desktop","msg":"System tray service: rendering no tray"}
{"level":30,"time":"2021-08-30T10:34:42.883Z","pid":101778,"hostname":"arch-desktop","msg":"Approving request for permission 'notifications'"}
{"level":30,"time":"2021-08-30T10:35:08.931Z","pid":101778,"hostname":"arch-desktop","msg":"System tray service: setting unread count to 0"}
{"level":30,"time":"2021-08-30T10:35:08.932Z","pid":101778,"hostname":"arch-desktop","msg":"System tray service: rendering no tray"}
{"level":30,"time":"2021-08-30T10:35:31.478Z","pid":101778,"hostname":"arch-desktop","msg":"Updating BrowserWindow config: {\"maximized\":false,\"autoHideMenuBar\":false,\"fullscreen\":false,\"width\":919,\"height\":550,\"x\":11,\"y\":54}"}
{"level":30,"time":"2021-08-30T10:35:31.478Z","pid":101778,"hostname":"arch-desktop","msg":"config/set: Saving ephemeral config to disk"}
{"level":30,"time":"2021-08-30T10:39:18.853Z","pid":101778,"hostname":"arch-desktop","msg":"System tray service: setting unread count to 1"}
{"level":30,"time":"2021-08-30T10:39:18.853Z","pid":101778,"hostname":"arch-desktop","msg":"System tray service: rendering no tray"}
{"level":30,"time":"2021-08-30T10:39:18.958Z","pid":101778,"hostname":"arch-desktop","msg":"Approving request for permission 'notifications'"}
{"level":30,"time":"2021-08-30T10:39:48.646Z","pid":101778,"hostname":"arch-desktop","msg":"System tray service: setting unread count to 0"}
{"level":30,"time":"2021-08-30T10:39:48.646Z","pid":101778,"hostname":"arch-desktop","msg":"System tray service: rendering no tray"}
{"level":30,"time":"2021-08-30T10:43:54.072Z","pid":101778,"hostname":"arch-desktop","msg":"System tray service: setting unread count to 1"}
{"level":30,"time":"2021-08-30T10:43:54.072Z","pid":101778,"hostname":"arch-desktop","msg":"System tray service: rendering no tray"}
{"level":30,"time":"2021-08-30T10:43:54.181Z","pid":101778,"hostname":"arch-desktop","msg":"Approving request for permission 'notifications'"}
{"level":30,"time":"2021-08-30T10:44:01.634Z","pid":101778,"hostname":"arch-desktop","msg":"System tray service: setting unread count to 0"}
{"level":30,"time":"2021-08-30T10:44:01.634Z","pid":101778,"hostname":"arch-desktop","msg":"System tray service: rendering no tray"}
{"level":30,"time":"2021-08-30T10:46:27.276Z","pid":101778,"hostname":"arch-desktop","msg":"System tray service: setting unread count to 1"}
{"level":30,"time":"2021-08-30T10:46:27.276Z","pid":101778,"hostname":"arch-desktop","msg":"System tray service: rendering no tray"}
{"level":30,"time":"2021-08-30T10:46:27.374Z","pid":101778,"hostname":"arch-desktop","msg":"Approving request for permission 'notifications'"}
{"level":30,"time":"2021-08-30T10:48:25.536Z","pid":101778,"hostname":"arch-desktop","msg":"System tray service: setting unread count to 0"}
{"level":30,"time":"2021-08-30T10:48:25.536Z","pid":101778,"hostname":"arch-desktop","msg":"System tray service: rendering no tray"}
{"level":30,"time":"2021-08-30T10:50:38.070Z","pid":101778,"hostname":"arch-desktop","msg":"System tray service: setting unread count to 1"}
{"level":30,"time":"2021-08-30T10:50:38.070Z","pid":101778,"hostname":"arch-desktop","msg":"System tray service: rendering no tray"}
{"level":30,"time":"2021-08-30T10:50:39.430Z","pid":101778,"hostname":"arch-desktop","msg":"System tray service: setting unread count to 0"}
{"level":30,"time":"2021-08-30T10:50:39.431Z","pid":101778,"hostname":"arch-desktop","msg":"System tray service: rendering no tray"}
{"level":30,"time":"2021-08-30T10:51:18.938Z","pid":101778,"hostname":"arch-desktop","msg":"System tray service: setting unread count to 1"}
{"level":30,"time":"2021-08-30T10:51:18.939Z","pid":101778,"hostname":"arch-desktop","msg":"System tray service: rendering no tray"}
{"level":30,"time":"2021-08-30T10:51:19.055Z","pid":101778,"hostname":"arch-desktop","msg":"Approving request for permission 'notifications'"}
{"level":30,"time":"2021-08-30T10:54:06.877Z","pid":101778,"hostname":"arch-desktop","msg":"System tray service: setting unread count to 0"}
{"level":30,"time":"2021-08-30T10:54:06.878Z","pid":101778,"hostname":"arch-desktop","msg":"System tray service: rendering no tray"}
{"level":30,"time":"2021-08-30T10:56:48.885Z","pid":101778,"hostname":"arch-desktop","msg":"System tray service: setting unread count to 1"}
{"level":30,"time":"2021-08-30T10:56:48.885Z","pid":101778,"hostname":"arch-desktop","msg":"System tray service: rendering no tray"}
{"level":30,"time":"2021-08-30T10:56:49.010Z","pid":101778,"hostname":"arch-desktop","msg":"Approving request for permission 'notifications'"}
{"level":30,"time":"2021-08-30T10:57:28.887Z","pid":101778,"hostname":"arch-desktop","msg":"System tray service: setting unread count to 0"}
{"level":30,"time":"2021-08-30T10:57:28.887Z","pid":101778,"hostname":"arch-desktop","msg":"System tray service: rendering no tray"}
{"level":30,"time":"2021-08-30T11:01:45.936Z","pid":101778,"hostname":"arch-desktop","msg":"System tray service: setting unread count to 1"}
{"level":30,"time":"2021-08-30T11:01:45.936Z","pid":101778,"hostname":"arch-desktop","msg":"System tray service: rendering no tray"}
{"level":30,"time":"2021-08-30T11:01:46.039Z","pid":101778,"hostname":"arch-desktop","msg":"Approving request for permission 'notifications'"}
{"level":30,"time":"2021-08-30T11:02:17.228Z","pid":101778,"hostname":"arch-desktop","msg":"System tray service: setting unread count to 0"}
{"level":30,"time":"2021-08-30T11:02:17.228Z","pid":101778,"hostname":"arch-desktop","msg":"System tray service: rendering no tray"}
{"level":30,"time":"2021-08-30T11:04:07.500Z","pid":101778,"hostname":"arch-desktop","msg":"System tray service: setting unread count to 1"}
{"level":30,"time":"2021-08-30T11:04:07.500Z","pid":101778,"hostname":"arch-desktop","msg":"System tray service: rendering no tray"}
{"level":30,"time":"2021-08-30T11:04:07.602Z","pid":101778,"hostname":"arch-desktop","msg":"Approving request for permission 'notifications'"}
{"level":30,"time":"2021-08-30T11:04:13.960Z","pid":101778,"hostname":"arch-desktop","msg":"System tray service: setting unread count to 0"}
{"level":30,"time":"2021-08-30T11:04:13.960Z","pid":101778,"hostname":"arch-desktop","msg":"System tray service: rendering no tray"}
{"level":30,"time":"2021-08-30T11:07:33.895Z","pid":101778,"hostname":"arch-desktop","msg":"System tray service: setting unread count to 1"}
{"level":30,"time":"2021-08-30T11:07:33.895Z","pid":101778,"hostname":"arch-desktop","msg":"System tray service: rendering no tray"}
{"level":30,"time":"2021-08-30T11:07:34.014Z","pid":101778,"hostname":"arch-desktop","msg":"Approving request for permission 'notifications'"}
{"level":30,"time":"2021-08-30T11:08:03.852Z","pid":101778,"hostname":"arch-desktop","msg":"System tray service: setting unread count to 0"}
{"level":30,"time":"2021-08-30T11:08:03.852Z","pid":101778,"hostname":"arch-desktop","msg":"System tray service: rendering no tray"}
{"level":30,"time":"2021-08-30T11:16:19.993Z","pid":101778,"hostname":"arch-desktop","msg":"System tray service: setting unread count to 1"}
{"level":30,"time":"2021-08-30T11:16:19.993Z","pid":101778,"hostname":"arch-desktop","msg":"System tray service: rendering no tray"}
{"level":30,"time":"2021-08-30T11:16:20.097Z","pid":101778,"hostname":"arch-desktop","msg":"Approving request for permission 'notifications'"}
{"level":30,"time":"2021-08-30T11:16:46.358Z","pid":101778,"hostname":"arch-desktop","msg":"System tray service: setting unread count to 0"}
{"level":30,"time":"2021-08-30T11:16:46.358Z","pid":101778,"hostname":"arch-desktop","msg":"System tray service: rendering no tray"}
{"level":30,"time":"2021-08-30T11:18:24.296Z","pid":101778,"hostname":"arch-desktop","msg":"System tray service: setting unread count to 1"}
{"level":30,"time":"2021-08-30T11:18:24.296Z","pid":101778,"hostname":"arch-desktop","msg":"System tray service: rendering no tray"}
{"level":30,"time":"2021-08-30T11:18:24.414Z","pid":101778,"hostname":"arch-desktop","msg":"Approving request for permission 'notifications'"}
{"level":30,"time":"2021-08-30T11:19:37.296Z","pid":101778,"hostname":"arch-desktop","msg":"System tray service: setting unread count to 2"}
{"level":30,"time":"2021-08-30T11:19:37.297Z","pid":101778,"hostname":"arch-desktop","msg":"System tray service: rendering no tray"}
{"level":30,"time":"2021-08-30T11:19:37.406Z","pid":101778,"hostname":"arch-desktop","msg":"Approving request for permission 'notifications'"}
{"level":30,"time":"2021-08-30T11:21:50.343Z","pid":101778,"hostname":"arch-desktop","msg":"System tray service: setting unread count to 0"}
{"level":30,"time":"2021-08-30T11:21:50.343Z","pid":101778,"hostname":"arch-desktop","msg":"System tray service: rendering no tray"}
{"level":30,"time":"2021-08-30T11:24:21.837Z","pid":101778,"hostname":"arch-desktop","msg":"System tray service: setting unread count to 1"}
{"level":30,"time":"2021-08-30T11:24:21.837Z","pid":101778,"hostname":"arch-desktop","msg":"System tray service: rendering no tray"}
{"level":30,"time":"2021-08-30T11:24:21.947Z","pid":101778,"hostname":"arch-desktop","msg":"Approving request for permission 'notifications'"}
{"level":30,"time":"2021-08-30T11:24:26.911Z","pid":101778,"hostname":"arch-desktop","msg":"System tray service: setting unread count to 0"}
{"level":30,"time":"2021-08-30T11:24:26.911Z","pid":101778,"hostname":"arch-desktop","msg":"System tray service: rendering no tray"}
{"level":30,"time":"2021-08-30T11:27:25.792Z","pid":101778,"hostname":"arch-desktop","msg":"Updating BrowserWindow config: {\"maximized\":false,\"autoHideMenuBar\":false,\"fullscreen\":false,\"width\":919,\"height\":550,\"x\":204,\"y\":88}"}
{"level":30,"time":"2021-08-30T11:27:25.792Z","pid":101778,"hostname":"arch-desktop","msg":"config/set: Saving ephemeral config to disk"}
{"level":30,"time":"2021-08-30T11:28:18.589Z","pid":101778,"hostname":"arch-desktop","msg":"System tray service: setting unread count to 1"}
{"level":30,"time":"2021-08-30T11:28:18.589Z","pid":101778,"hostname":"arch-desktop","msg":"System tray service: rendering no tray"}
{"level":30,"time":"2021-08-30T11:28:18.691Z","pid":101778,"hostname":"arch-desktop","msg":"Approving request for permission 'notifications'"}
{"level":30,"time":"2021-08-30T11:28:37.650Z","pid":101778,"hostname":"arch-desktop","msg":"System tray service: setting unread count to 2"}
{"level":30,"time":"2021-08-30T11:28:37.650Z","pid":101778,"hostname":"arch-desktop","msg":"System tray service: rendering no tray"}
{"level":30,"time":"2021-08-30T11:28:37.759Z","pid":101778,"hostname":"arch-desktop","msg":"Approving request for permission 'notifications'"}
{"level":30,"time":"2021-08-30T11:28:44.557Z","pid":101778,"hostname":"arch-desktop","msg":"System tray service: setting unread count to 0"}
{"level":30,"time":"2021-08-30T11:28:44.557Z","pid":101778,"hostname":"arch-desktop","msg":"System tray service: rendering no tray"}
{"level":30,"time":"2021-08-30T11:30:01.446Z","pid":101778,"hostname":"arch-desktop","msg":"System tray service: setting unread count to 1"}
{"level":30,"time":"2021-08-30T11:30:01.446Z","pid":101778,"hostname":"arch-desktop","msg":"System tray service: rendering no tray"}
{"level":30,"time":"2021-08-30T11:30:01.576Z","pid":101778,"hostname":"arch-desktop","msg":"Approving request for permission 'notifications'"}
{"level":30,"time":"2021-08-30T11:30:25.171Z","pid":101778,"hostname":"arch-desktop","msg":"System tray service: setting unread count to 0"}
{"level":30,"time":"2021-08-30T11:30:25.171Z","pid":101778,"hostname":"arch-desktop","msg":"System tray service: rendering no tray"}
{"level":30,"time":"2021-08-30T13:52:31.806Z","pid":101778,"hostname":"arch-desktop","msg":"ts/sql/main: slow query createOrUpdateItem duration=74ms"}
{"level":30,"time":"2021-08-30T20:32:42.380Z","pid":101778,"hostname":"arch-desktop","msg":"System tray service: setting unread count to 1"}
{"level":30,"time":"2021-08-30T20:32:42.380Z","pid":101778,"hostname":"arch-desktop","msg":"System tray service: rendering no tray"}
{"level":30,"time":"2021-08-30T20:32:42.491Z","pid":101778,"hostname":"arch-desktop","msg":"Approving request for permission 'notifications'"}
{"level":30,"time":"2021-08-30T20:32:46.621Z","pid":101778,"hostname":"arch-desktop","msg":"System tray service: setting unread count to 0"}
{"level":30,"time":"2021-08-30T20:32:46.621Z","pid":101778,"hostname":"arch-desktop","msg":"System tray service: rendering no tray"}
{"level":30,"time":"2021-08-30T20:39:18.392Z","pid":101778,"hostname":"arch-desktop","msg":"System tray service: setting unread count to 1"}
{"level":30,"time":"2021-08-30T20:39:18.392Z","pid":101778,"hostname":"arch-desktop","msg":"System tray service: rendering no tray"}
{"level":30,"time":"2021-08-30T20:39:18.503Z","pid":101778,"hostname":"arch-desktop","msg":"Approving request for permission 'notifications'"}
{"level":30,"time":"2021-08-30T20:39:51.751Z","pid":101778,"hostname":"arch-desktop","msg":"System tray service: setting unread count to 2"}
{"level":30,"time":"2021-08-30T20:39:51.751Z","pid":101778,"hostname":"arch-desktop","msg":"System tray service: rendering no tray"}
{"level":30,"time":"2021-08-30T20:39:51.859Z","pid":101778,"hostname":"arch-desktop","msg":"Approving request for permission 'notifications'"}
{"level":30,"time":"2021-08-30T20:40:01.844Z","pid":101778,"hostname":"arch-desktop","msg":"System tray service: setting unread count to 1"}
{"level":30,"time":"2021-08-30T20:40:01.844Z","pid":101778,"hostname":"arch-desktop","msg":"System tray service: rendering no tray"}
{"level":30,"time":"2021-08-30T20:40:09.242Z","pid":101778,"hostname":"arch-desktop","msg":"System tray service: setting unread count to 0"}
{"level":30,"time":"2021-08-30T20:40:09.242Z","pid":101778,"hostname":"arch-desktop","msg":"System tray service: rendering no tray"}
{"level":30,"time":"2021-08-30T20:40:14.060Z","pid":101778,"hostname":"arch-desktop","msg":"System tray service: setting unread count to 1"}
{"level":30,"time":"2021-08-30T20:40:14.060Z","pid":101778,"hostname":"arch-desktop","msg":"System tray service: rendering no tray"}
{"level":30,"time":"2021-08-30T20:40:18.376Z","pid":101778,"hostname":"arch-desktop","msg":"System tray service: setting unread count to 0"}
{"level":30,"time":"2021-08-30T20:40:18.377Z","pid":101778,"hostname":"arch-desktop","msg":"System tray service: rendering no tray"}
{"level":30,"time":"2021-08-30T20:41:29.232Z","pid":101778,"hostname":"arch-desktop","msg":"close event {\"shouldQuit\":false}"}
{"level":30,"time":"2021-08-30T20:41:29.233Z","pid":101778,"hostname":"arch-desktop","msg":"System tray service: rendering no tray"}
{"level":30,"time":"2021-08-30T20:41:29.233Z","pid":101778,"hostname":"arch-desktop","msg":"requestShutdown: Requesting close of mainWindow..."}
{"level":30,"time":"2021-08-30T20:41:29.271Z","pid":101778,"hostname":"arch-desktop","msg":"requestShutdown: Response received"}
{"level":30,"time":"2021-08-30T20:41:29.279Z","pid":101778,"hostname":"arch-desktop","msg":"before-quit event {\"readyForShutdown\":true,\"shouldQuit\":false}"}
{"level":30,"time":"2021-08-30T20:41:29.279Z","pid":101778,"hostname":"arch-desktop","msg":"close event {\"readyForShutdown\":true,\"shouldQuit\":true}"}
{"level":30,"time":"2021-08-30T20:41:29.283Z","pid":101778,"hostname":"arch-desktop","msg":"System tray service: updating main window. Previously, there was a window, and now there is not"}
{"level":30,"time":"2021-08-30T20:41:33.815Z","pid":162441,"hostname":"arch-desktop","msg":"app ready"}
{"level":30,"time":"2021-08-30T20:41:33.815Z","pid":162441,"hostname":"arch-desktop","msg":"starting version 5.15.0"}
{"level":30,"time":"2021-08-30T20:41:33.815Z","pid":162441,"hostname":"arch-desktop","msg":"media access status"}
{"level":30,"time":"2021-08-30T20:41:33.835Z","pid":162441,"hostname":"arch-desktop","msg":"got fast spellcheck setting true"}
{"level":30,"time":"2021-08-30T20:41:33.835Z","pid":162441,"hostname":"arch-desktop","msg":"getSystemTraySetting had no flags and did no DB lookups. Returning DoNotUseSystemTray"}
{"level":30,"time":"2021-08-30T20:41:33.836Z","pid":162441,"hostname":"arch-desktop","msg":"Initializing BrowserWindow config: {\"show\":false,\"width\":919,\"height\":550,\"minWidth\":680,\"minHeight\":550,\"autoHideMenuBar\":false,\"titleBarStyle\":\"default\",\"backgroundColor\":\"#3a76f0\",\"webPreferences\":{\"devTools\":false,\"nodeIntegration\":false,\"nodeIntegrationInWorker\":false,\"contextIsolation\":false,\"enableRemoteModule\":true,\"preload\":\"/usr/lib/signal-desktop/resources/app.asar/preload.bundle.js\",\"nativeWindowOpen\":true,\"spellcheck\":true,\"backgroundThrottling\":false},\"icon\":\"/usr/lib/signal-desktop/resources/app.asar/images/signal-logo-desktop-linux.png\",\"x\":204,\"y\":88}"}
{"level":30,"time":"2021-08-30T20:41:33.883Z","pid":162441,"hostname":"arch-desktop","msg":"spellcheck: user locale: en-US"}
{"level":30,"time":"2021-08-30T20:41:33.883Z","pid":162441,"hostname":"arch-desktop","msg":"spellcheck: available spellchecker languages:  [\"af\",\"bg\",\"ca\",\"cs\",\"cy\",\"da\",\"de\",\"de-DE\",\"el\",\"en-AU\",\"en-CA\",\"en-GB\",\"en-GB-oxendict\",\"en-US\",\"es\",\"es-419\",\"es-AR\",\"es-ES\",\"es-MX\",\"es-US\",\"et\",\"fa\",\"fo\",\"fr\",\"fr-FR\",\"he\",\"hi\",\"hr\",\"hu\",\"hy\",\"id\",\"it\",\"it-IT\",\"ko\",\"lt\",\"lv\",\"nb\",\"nl\",\"pl\",\"pt\",\"pt-BR\",\"pt-PT\",\"ro\",\"ru\",\"sh\",\"sk\",\"sl\",\"sq\",\"sr\",\"sv\",\"ta\",\"tg\",\"tr\",\"uk\",\"vi\"]"}
{"level":30,"time":"2021-08-30T20:41:33.883Z","pid":162441,"hostname":"arch-desktop","msg":"spellcheck: setting languages to:  [\"en-US\"]"}
{"level":30,"time":"2021-08-30T20:41:33.896Z","pid":162441,"hostname":"arch-desktop","msg":"got fast spellcheck setting true"}
{"level":30,"time":"2021-08-30T20:41:33.900Z","pid":162441,"hostname":"arch-desktop","msg":"System tray service: created"}
{"level":30,"time":"2021-08-30T20:41:33.901Z","pid":162441,"hostname":"arch-desktop","msg":"System tray service: updating main window. Previously, there was not a window, and now there is"}
{"level":30,"time":"2021-08-30T20:41:33.901Z","pid":162441,"hostname":"arch-desktop","msg":"System tray service: rendering no tray"}
{"level":30,"time":"2021-08-30T20:41:33.901Z","pid":162441,"hostname":"arch-desktop","msg":"Begin ensuring permissions"}
{"level":30,"time":"2021-08-30T20:41:33.907Z","pid":162441,"hostname":"arch-desktop","msg":"Ensuring file permissions for 4 files"}
{"level":30,"time":"2021-08-30T20:41:33.909Z","pid":162441,"hostname":"arch-desktop","msg":"Finish ensuring permissions in 8ms"}
{"level":30,"time":"2021-08-30T20:41:35.444Z","pid":162441,"hostname":"arch-desktop","msg":"sending `database-ready`"}
{"level":30,"time":"2021-08-30T20:41:35.448Z","pid":162441,"hostname":"arch-desktop","msg":"main window is ready-to-show"}
{"level":30,"time":"2021-08-30T20:41:35.448Z","pid":162441,"hostname":"arch-desktop","msg":"showing main window"}
{"level":30,"time":"2021-08-30T20:41:35.456Z","pid":162441,"hostname":"arch-desktop","msg":"System tray service: rendering no tray"}
{"level":30,"time":"2021-08-30T20:41:35.965Z","pid":162441,"hostname":"arch-desktop","msg":"Updating BrowserWindow config: {\"maximized\":false,\"autoHideMenuBar\":false,\"fullscreen\":false,\"width\":919,\"height\":550,\"x\":205,\"y\":106}"}
{"level":30,"time":"2021-08-30T20:41:35.965Z","pid":162441,"hostname":"arch-desktop","msg":"config/set: Saving ephemeral config to disk"}
{"level":30,"time":"2021-08-30T20:41:36.179Z","pid":162441,"hostname":"arch-desktop","msg":"updater/start: Updates disabled - not starting new version checks"}
{"level":30,"time":"2021-08-30T20:41:36.211Z","pid":162441,"hostname":"arch-desktop","msg":"App loaded - time: 2453"}
{"level":30,"time":"2021-08-30T20:41:36.211Z","pid":162441,"hostname":"arch-desktop","msg":"SQL init - time: 57"}
{"level":30,"time":"2021-08-30T20:41:36.211Z","pid":162441,"hostname":"arch-desktop","msg":"Preload - time: 1174"}
{"level":30,"time":"2021-08-30T20:41:36.211Z","pid":162441,"hostname":"arch-desktop","msg":"WebSocket connect - time: 719"}
{"level":30,"time":"2021-08-30T20:41:36.211Z","pid":162441,"hostname":"arch-desktop","msg":"Processed count: 0"}
{"level":30,"time":"2021-08-30T20:41:36.211Z","pid":162441,"hostname":"arch-desktop","msg":"Messages per second: 0"}
{"level":30,"time":"2021-08-30T20:41:36.597Z","pid":162441,"hostname":"arch-desktop","msg":"System tray service: setting unread count to 1"}
{"level":30,"time":"2021-08-30T20:41:36.597Z","pid":162441,"hostname":"arch-desktop","msg":"System tray service: rendering no tray"}
{"level":30,"time":"2021-08-30T20:41:39.387Z","pid":162441,"hostname":"arch-desktop","msg":"System tray service: setting unread count to 0"}
{"level":30,"time":"2021-08-30T20:41:39.387Z","pid":162441,"hostname":"arch-desktop","msg":"System tray service: rendering no tray"}
{"level":30,"time":"2021-08-30T20:43:56.909Z","pid":162441,"hostname":"arch-desktop","msg":"Updating BrowserWindow config: {\"maximized\":false,\"autoHideMenuBar\":false,\"fullscreen\":false,\"width\":1079,\"height\":744,\"x\":205,\"y\":106}"}
{"level":30,"time":"2021-08-30T20:43:56.909Z","pid":162441,"hostname":"arch-desktop","msg":"config/set: Saving ephemeral config to disk"}
{"level":30,"time":"2021-08-30T20:44:32.183Z","pid":162441,"hostname":"arch-desktop","msg":"ts/sql/main: slow query insertSentProto duration=112ms"}
{"level":30,"time":"2021-08-30T20:51:30.040Z","pid":162441,"hostname":"arch-desktop","msg":"System tray service: setting unread count to 1"}
{"level":30,"time":"2021-08-30T20:51:30.040Z","pid":162441,"hostname":"arch-desktop","msg":"System tray service: rendering no tray"}
{"level":30,"time":"2021-08-30T20:51:30.126Z","pid":162441,"hostname":"arch-desktop","msg":"Approving request for permission 'notifications'"}
{"level":30,"time":"2021-08-30T20:56:01.682Z","pid":162441,"hostname":"arch-desktop","msg":"System tray service: setting unread count to 0"}
{"level":30,"time":"2021-08-30T20:56:01.682Z","pid":162441,"hostname":"arch-desktop","msg":"System tray service: rendering no tray"}
{"level":30,"time":"2021-08-30T21:56:42.850Z","pid":162441,"hostname":"arch-desktop","msg":"System tray service: setting unread count to 1"}
{"level":30,"time":"2021-08-30T21:56:42.850Z","pid":162441,"hostname":"arch-desktop","msg":"System tray service: rendering no tray"}
{"level":30,"time":"2021-08-30T21:56:42.970Z","pid":162441,"hostname":"arch-desktop","msg":"Approving request for permission 'notifications'"}
{"level":30,"time":"2021-08-30T21:57:05.288Z","pid":162441,"hostname":"arch-desktop","msg":"System tray service: setting unread count to 2"}
{"level":30,"time":"2021-08-30T21:57:05.288Z","pid":162441,"hostname":"arch-desktop","msg":"System tray service: rendering no tray"}
{"level":30,"time":"2021-08-30T21:57:05.413Z","pid":162441,"hostname":"arch-desktop","msg":"Approving request for permission 'notifications'"}
{"level":30,"time":"2021-08-30T21:57:15.511Z","pid":162441,"hostname":"arch-desktop","msg":"System tray service: setting unread count to 0"}
{"level":30,"time":"2021-08-30T21:57:15.511Z","pid":162441,"hostname":"arch-desktop","msg":"System tray service: rendering no tray"}
{"level":30,"time":"2021-08-30T22:36:36.068Z","pid":162441,"hostname":"arch-desktop","msg":"ts/sql/main: slow query createOrUpdateItem duration=488ms"}
{"level":30,"time":"2021-08-30T22:51:35.629Z","pid":162441,"hostname":"arch-desktop","msg":"ts/sql/main: slow query createOrUpdateItem duration=49ms"}
{"level":30,"time":"2021-08-30T23:36:35.886Z","pid":162441,"hostname":"arch-desktop","msg":"ts/sql/main: slow query createOrUpdateItem duration=306ms"}
{"level":30,"time":"2021-08-30T23:41:35.628Z","pid":162441,"hostname":"arch-desktop","msg":"ts/sql/main: slow query createOrUpdateItem duration=47ms"}
{"level":30,"time":"2021-08-30T23:46:35.623Z","pid":162441,"hostname":"arch-desktop","msg":"ts/sql/main: slow query createOrUpdateItem duration=43ms"}
{"level":30,"time":"2021-08-31T00:06:45.631Z","pid":162441,"hostname":"arch-desktop","msg":"Updating BrowserWindow config: {\"maximized\":false,\"autoHideMenuBar\":false,\"fullscreen\":false,\"width\":1079,\"height\":744,\"x\":1031,\"y\":231}"}
{"level":30,"time":"2021-08-31T00:06:45.631Z","pid":162441,"hostname":"arch-desktop","msg":"config/set: Saving ephemeral config to disk"}
{"level":30,"time":"2021-08-31T00:06:46.158Z","pid":162441,"hostname":"arch-desktop","msg":"Updating BrowserWindow config: {\"maximized\":false,\"autoHideMenuBar\":false,\"fullscreen\":false,\"width\":1079,\"height\":744,\"x\":1988,\"y\":178}"}
{"level":30,"time":"2021-08-31T00:06:46.159Z","pid":162441,"hostname":"arch-desktop","msg":"config/set: Saving ephemeral config to disk"}
{"level":30,"time":"2021-08-31T00:11:35.376Z","pid":162441,"hostname":"arch-desktop","msg":"System tray service: setting unread count to 1"}
{"level":30,"time":"2021-08-31T00:11:35.376Z","pid":162441,"hostname":"arch-desktop","msg":"System tray service: rendering no tray"}
{"level":30,"time":"2021-08-31T00:11:35.498Z","pid":162441,"hostname":"arch-desktop","msg":"Approving request for permission 'notifications'"}
{"level":30,"time":"2021-08-31T00:12:17.266Z","pid":162441,"hostname":"arch-desktop","msg":"ts/sql/main: slow query insertSentProto duration=71ms"}
{"level":30,"time":"2021-08-31T00:12:18.299Z","pid":162441,"hostname":"arch-desktop","msg":"System tray service: setting unread count to 0"}
{"level":30,"time":"2021-08-31T00:12:18.299Z","pid":162441,"hostname":"arch-desktop","msg":"System tray service: rendering no tray"}
{"level":30,"time":"2021-08-31T00:12:19.078Z","pid":162441,"hostname":"arch-desktop","msg":"Updating BrowserWindow config: {\"maximized\":false,\"autoHideMenuBar\":false,\"fullscreen\":false,\"width\":1079,\"height\":744,\"x\":142,\"y\":126}"}
{"level":30,"time":"2021-08-31T00:12:19.079Z","pid":162441,"hostname":"arch-desktop","msg":"config/set: Saving ephemeral config to disk"}
