{
	"$schema": "https://joplinapp.org/schema/settings.json",
	"locale": "en_US",
	"api.token": "2f511f5ef9e2ce68ca2ca95d88235446d18ea2b2e6a300e39903b3b6ef3bb83967932e0683f1368c23ee7095ac401554354bc5beb5574a1caa780852c3583825",
	"markdown.plugin.softbreaks": false,
	"markdown.plugin.typographer": false,
	"spellChecker.language": "en-US",
	"ui.layout": {
		"key": "root",
		"children": [
			{
				"key": "sideBar",
				"width": 250,
				"visible": true
			},
			{
				"key": "noteList",
				"width": 250,
				"visible": true
			},
			{
				"key": "editor",
				"visible": true
			}
		],
		"visible": true
	},
	"noteVisiblePanes": [
		"editor",
		"viewer"
	],
	"sync.target": 6,
	"sync.6.path": "https://techyfam.com:5006/Family/Mikes/Joplin",
	"sync.6.username": "mike",
	"net.ignoreTlsErrors": true,
	"theme": 7,
	"editor.codeView": true,
	"notes.sortOrder.field": "order"
}
