# Find lots more stations at http://www.iheart.com,
SomaFM - Drone Zone,https://somafm.com/dronezone130.pls
SomaFM - Groove Salad,https://somafm.com/groovesalad130.pls
SomaFM - Groove Salad Classic,https://somafm.com/gsclassic130.pls
SomaFM - Deep Space One,https://somafm.com/deepspaceone130.pls
SomaFM - Synphaera,https://somafm.com/synphaera130.pls
SomaFM - Space Station,https://somafm.com/spacestation130.pls
SomaFM - Beat Blender,https://somafm.com/beatblender130.pls
SomaFM - Boot Liquor,https://somafm.com/bootliquor130.pls
SomaFM - Def Con Radio,https://somafm.com/defcon130.pls
SomaFM - BAGeL Radio - Alternative Rock,https://somafm.com/bagel130.pls
SomaFM - Fluid,https://somafm.com/fluid130.pls
SomaFM - Heavyweight Reggae,https://somafm.com/reggae130.pls
SomaFM - Cliqhop IDM,https://somafm.com/cliqhop130.pls
SomaFM - Covers - Songs you know by people you don't,https://somafm.com/covers130.pls
SomaFM - Black Rock FM,https://somafm.com/brfm130.psl
Internet-Radio - Chilltrax,https://www.internet-radio.com/servers/tools/playlistgenerator/?u=https://streamssl.chilltrax.com:80/listen.pls?sid=1&t=.pls
